%!PS-Adobe-3.0 EPSF-3.0
%%Creator: (MATLAB, The Mathworks, Inc. Version 9.2.0.556344 \(R2017a\). Operating System: Mac OS X)
%%Title: figures/graph_ID_svd_ex2.eps
%%CreationDate: 2017-10-23T16:04:27
%%Pages: (atend)
%%BoundingBox:    10     2   516   396
%%LanguageLevel: 3
%%EndComments
%%BeginProlog
%%BeginResource: procset (Apache XML Graphics Std ProcSet) 1.2 0
%%Version: 1.2 0
%%Copyright: (Copyright 2001-2003,2010 The Apache Software Foundation. License terms: http://www.apache.org/licenses/LICENSE-2.0)
/bd{bind def}bind def
/ld{load def}bd
/GR/grestore ld
/M/moveto ld
/LJ/setlinejoin ld
/C/curveto ld
/f/fill ld
/LW/setlinewidth ld
/GC/setgray ld
/t/show ld
/N/newpath ld
/CT/concat ld
/cp/closepath ld
/S/stroke ld
/L/lineto ld
/CC/setcmykcolor ld
/A/ashow ld
/GS/gsave ld
/RC/setrgbcolor ld
/RM/rmoveto ld
/ML/setmiterlimit ld
/re {4 2 roll M
1 index 0 rlineto
0 exch rlineto
neg 0 rlineto
cp } bd
/_ctm matrix def
/_tm matrix def
/BT { _ctm currentmatrix pop matrix _tm copy pop 0 0 moveto } bd
/ET { _ctm setmatrix } bd
/iTm { _ctm setmatrix _tm concat } bd
/Tm { _tm astore pop iTm 0 0 moveto } bd
/ux 0.0 def
/uy 0.0 def
/F {
  /Tp exch def
  /Tf exch def
  Tf findfont Tp scalefont setfont
  /cf Tf def  /cs Tp def
} bd
/ULS {currentpoint /uy exch def /ux exch def} bd
/ULE {
  /Tcx currentpoint pop def
  gsave
  newpath
  cf findfont cs scalefont dup
  /FontMatrix get 0 get /Ts exch def /FontInfo get dup
  /UnderlinePosition get Ts mul /To exch def
  /UnderlineThickness get Ts mul /Tt exch def
  ux uy To add moveto  Tcx uy To add lineto
  Tt setlinewidth stroke
  grestore
} bd
/OLE {
  /Tcx currentpoint pop def
  gsave
  newpath
  cf findfont cs scalefont dup
  /FontMatrix get 0 get /Ts exch def /FontInfo get dup
  /UnderlinePosition get Ts mul /To exch def
  /UnderlineThickness get Ts mul /Tt exch def
  ux uy To add cs add moveto Tcx uy To add cs add lineto
  Tt setlinewidth stroke
  grestore
} bd
/SOE {
  /Tcx currentpoint pop def
  gsave
  newpath
  cf findfont cs scalefont dup
  /FontMatrix get 0 get /Ts exch def /FontInfo get dup
  /UnderlinePosition get Ts mul /To exch def
  /UnderlineThickness get Ts mul /Tt exch def
  ux uy To add cs 10 mul 26 idiv add moveto Tcx uy To add cs 10 mul 26 idiv add lineto
  Tt setlinewidth stroke
  grestore
} bd
/QT {
/Y22 exch store
/X22 exch store
/Y21 exch store
/X21 exch store
currentpoint
/Y21 load 2 mul add 3 div exch
/X21 load 2 mul add 3 div exch
/X21 load 2 mul /X22 load add 3 div
/Y21 load 2 mul /Y22 load add 3 div
/X22 load /Y22 load curveto
} bd
/SSPD {
dup length /d exch dict def
{
/v exch def
/k exch def
currentpagedevice k known {
/cpdv currentpagedevice k get def
v cpdv ne {
/upd false def
/nullv v type /nulltype eq def
/nullcpdv cpdv type /nulltype eq def
nullv nullcpdv or
{
/upd true def
} {
/sametype v type cpdv type eq def
sametype {
v type /arraytype eq {
/vlen v length def
/cpdvlen cpdv length def
vlen cpdvlen eq {
0 1 vlen 1 sub {
/i exch def
/obj v i get def
/cpdobj cpdv i get def
obj cpdobj ne {
/upd true def
exit
} if
} for
} {
/upd true def
} ifelse
} {
v type /dicttype eq {
v {
/dv exch def
/dk exch def
/cpddv cpdv dk get def
dv cpddv ne {
/upd true def
exit
} if
} forall
} {
/upd true def
} ifelse
} ifelse
} if
} ifelse
upd true eq {
d k v put
} if
} if
} if
} forall
d length 0 gt {
d setpagedevice
} if
} bd
/RE { % /NewFontName [NewEncodingArray] /FontName RE -
  findfont dup length dict begin
  {
    1 index /FID ne
    {def} {pop pop} ifelse
  } forall
  /Encoding exch def
  /FontName 1 index def
  currentdict definefont pop
  end
} bind def
%%EndResource
%%BeginResource: procset (Apache XML Graphics EPS ProcSet) 1.0 0
%%Version: 1.0 0
%%Copyright: (Copyright 2002-2003 The Apache Software Foundation. License terms: http://www.apache.org/licenses/LICENSE-2.0)
/BeginEPSF { %def
/b4_Inc_state save def         % Save state for cleanup
/dict_count countdictstack def % Count objects on dict stack
/op_count count 1 sub def      % Count objects on operand stack
userdict begin                 % Push userdict on dict stack
/showpage { } def              % Redefine showpage, { } = null proc
0 setgray 0 setlinecap         % Prepare graphics state
1 setlinewidth 0 setlinejoin
10 setmiterlimit [ ] 0 setdash newpath
/languagelevel where           % If level not equal to 1 then
{pop languagelevel             % set strokeadjust and
1 ne                           % overprint to their defaults.
{false setstrokeadjust false setoverprint
} if
} if
} bd
/EndEPSF { %def
count op_count sub {pop} repeat            % Clean up stacks
countdictstack dict_count sub {end} repeat
b4_Inc_state restore
} bd
%%EndResource
%FOPBeginFontDict
%%IncludeResource: font Courier-Bold
%%IncludeResource: font Helvetica
%%IncludeResource: font Courier-BoldOblique
%%IncludeResource: font Courier-Oblique
%%IncludeResource: font Times-Roman
%%IncludeResource: font Helvetica-BoldOblique
%%IncludeResource: font Helvetica-Bold
%%IncludeResource: font Helvetica-Oblique
%%IncludeResource: font Times-BoldItalic
%%IncludeResource: font Courier
%%IncludeResource: font Times-Italic
%%IncludeResource: font Times-Bold
%%IncludeResource: font Symbol
%%IncludeResource: font ZapfDingbats
%FOPEndFontDict
%%BeginResource: encoding WinAnsiEncoding
/WinAnsiEncoding [
/.notdef /.notdef /.notdef /.notdef /.notdef
/.notdef /.notdef /.notdef /.notdef /.notdef
/.notdef /.notdef /.notdef /.notdef /.notdef
/.notdef /.notdef /.notdef /.notdef /.notdef
/.notdef /.notdef /.notdef /.notdef /.notdef
/.notdef /.notdef /.notdef /.notdef /.notdef
/.notdef /.notdef /space /exclam /quotedbl
/numbersign /dollar /percent /ampersand /quotesingle
/parenleft /parenright /asterisk /plus /comma
/hyphen /period /slash /zero /one
/two /three /four /five /six
/seven /eight /nine /colon /semicolon
/less /equal /greater /question /at
/A /B /C /D /E
/F /G /H /I /J
/K /L /M /N /O
/P /Q /R /S /T
/U /V /W /X /Y
/Z /bracketleft /backslash /bracketright /asciicircum
/underscore /quoteleft /a /b /c
/d /e /f /g /h
/i /j /k /l /m
/n /o /p /q /r
/s /t /u /v /w
/x /y /z /braceleft /bar
/braceright /asciitilde /bullet /Euro /bullet
/quotesinglbase /florin /quotedblbase /ellipsis /dagger
/daggerdbl /circumflex /perthousand /Scaron /guilsinglleft
/OE /bullet /Zcaron /bullet /bullet
/quoteleft /quoteright /quotedblleft /quotedblright /bullet
/endash /emdash /asciitilde /trademark /scaron
/guilsinglright /oe /bullet /zcaron /Ydieresis
/space /exclamdown /cent /sterling /currency
/yen /brokenbar /section /dieresis /copyright
/ordfeminine /guillemotleft /logicalnot /sfthyphen /registered
/macron /degree /plusminus /twosuperior /threesuperior
/acute /mu /paragraph /middot /cedilla
/onesuperior /ordmasculine /guillemotright /onequarter /onehalf
/threequarters /questiondown /Agrave /Aacute /Acircumflex
/Atilde /Adieresis /Aring /AE /Ccedilla
/Egrave /Eacute /Ecircumflex /Edieresis /Igrave
/Iacute /Icircumflex /Idieresis /Eth /Ntilde
/Ograve /Oacute /Ocircumflex /Otilde /Odieresis
/multiply /Oslash /Ugrave /Uacute /Ucircumflex
/Udieresis /Yacute /Thorn /germandbls /agrave
/aacute /acircumflex /atilde /adieresis /aring
/ae /ccedilla /egrave /eacute /ecircumflex
/edieresis /igrave /iacute /icircumflex /idieresis
/eth /ntilde /ograve /oacute /ocircumflex
/otilde /odieresis /divide /oslash /ugrave
/uacute /ucircumflex /udieresis /yacute /thorn
/ydieresis
] def
%%EndResource
%FOPBeginFontReencode
/Courier-Bold findfont
dup length dict begin
  {1 index /FID ne {def} {pop pop} ifelse} forall
  /Encoding WinAnsiEncoding def
  currentdict
end
/Courier-Bold exch definefont pop
/Helvetica findfont
dup length dict begin
  {1 index /FID ne {def} {pop pop} ifelse} forall
  /Encoding WinAnsiEncoding def
  currentdict
end
/Helvetica exch definefont pop
/Courier-BoldOblique findfont
dup length dict begin
  {1 index /FID ne {def} {pop pop} ifelse} forall
  /Encoding WinAnsiEncoding def
  currentdict
end
/Courier-BoldOblique exch definefont pop
/Courier-Oblique findfont
dup length dict begin
  {1 index /FID ne {def} {pop pop} ifelse} forall
  /Encoding WinAnsiEncoding def
  currentdict
end
/Courier-Oblique exch definefont pop
/Times-Roman findfont
dup length dict begin
  {1 index /FID ne {def} {pop pop} ifelse} forall
  /Encoding WinAnsiEncoding def
  currentdict
end
/Times-Roman exch definefont pop
/Helvetica-BoldOblique findfont
dup length dict begin
  {1 index /FID ne {def} {pop pop} ifelse} forall
  /Encoding WinAnsiEncoding def
  currentdict
end
/Helvetica-BoldOblique exch definefont pop
/Helvetica-Bold findfont
dup length dict begin
  {1 index /FID ne {def} {pop pop} ifelse} forall
  /Encoding WinAnsiEncoding def
  currentdict
end
/Helvetica-Bold exch definefont pop
/Helvetica-Oblique findfont
dup length dict begin
  {1 index /FID ne {def} {pop pop} ifelse} forall
  /Encoding WinAnsiEncoding def
  currentdict
end
/Helvetica-Oblique exch definefont pop
/Times-BoldItalic findfont
dup length dict begin
  {1 index /FID ne {def} {pop pop} ifelse} forall
  /Encoding WinAnsiEncoding def
  currentdict
end
/Times-BoldItalic exch definefont pop
/Courier findfont
dup length dict begin
  {1 index /FID ne {def} {pop pop} ifelse} forall
  /Encoding WinAnsiEncoding def
  currentdict
end
/Courier exch definefont pop
/Times-Italic findfont
dup length dict begin
  {1 index /FID ne {def} {pop pop} ifelse} forall
  /Encoding WinAnsiEncoding def
  currentdict
end
/Times-Italic exch definefont pop
/Times-Bold findfont
dup length dict begin
  {1 index /FID ne {def} {pop pop} ifelse} forall
  /Encoding WinAnsiEncoding def
  currentdict
end
/Times-Bold exch definefont pop
%FOPEndFontReencode
%%EndProlog
%%Page: 1 1
%%PageBoundingBox: 0 0 560 420
%%BeginPageSetup
[1 0 0 -1 0 420] CT
%%EndPageSetup
GS
1 GC
N
0 0 560 420 re
f
GR
GS
1 GC
N
0 0 560 420 re
f
GR
GS
1 GC
N
73 373.5 M
507 373.5 L
507 31.5 L
73 31.5 L
cp
f
GR
GS
0.149 GC
2 setlinecap
1 LJ
0.5 LW
N
73 373.5 M
507 373.5 L
S
GR
GS
0.149 GC
2 setlinecap
1 LJ
0.5 LW
N
73 31.5 M
507 31.5 L
S
GR
GS
0.149 GC
2 setlinecap
1 LJ
0.5 LW
N
73 373.5 M
73 369.16 L
S
GR
GS
0.149 GC
2 setlinecap
1 LJ
0.5 LW
N
135 373.5 M
135 369.16 L
S
GR
GS
0.149 GC
2 setlinecap
1 LJ
0.5 LW
N
197 373.5 M
197 369.16 L
S
GR
GS
0.149 GC
2 setlinecap
1 LJ
0.5 LW
N
259 373.5 M
259 369.16 L
S
GR
GS
0.149 GC
2 setlinecap
1 LJ
0.5 LW
N
321 373.5 M
321 369.16 L
S
GR
GS
0.149 GC
2 setlinecap
1 LJ
0.5 LW
N
383 373.5 M
383 369.16 L
S
GR
GS
0.149 GC
2 setlinecap
1 LJ
0.5 LW
N
445 373.5 M
445 369.16 L
S
GR
GS
0.149 GC
2 setlinecap
1 LJ
0.5 LW
N
507 373.5 M
507 369.16 L
S
GR
GS
0.149 GC
2 setlinecap
1 LJ
0.5 LW
N
73 31.5 M
73 35.84 L
S
GR
GS
0.149 GC
2 setlinecap
1 LJ
0.5 LW
N
135 31.5 M
135 35.84 L
S
GR
GS
0.149 GC
2 setlinecap
1 LJ
0.5 LW
N
197 31.5 M
197 35.84 L
S
GR
GS
0.149 GC
2 setlinecap
1 LJ
0.5 LW
N
259 31.5 M
259 35.84 L
S
GR
GS
0.149 GC
2 setlinecap
1 LJ
0.5 LW
N
321 31.5 M
321 35.84 L
S
GR
GS
0.149 GC
2 setlinecap
1 LJ
0.5 LW
N
383 31.5 M
383 35.84 L
S
GR
GS
0.149 GC
2 setlinecap
1 LJ
0.5 LW
N
445 31.5 M
445 35.84 L
S
GR
GS
0.149 GC
2 setlinecap
1 LJ
0.5 LW
N
507 31.5 M
507 35.84 L
S
GR
GS
[1 0 0 1 73 378.70001] CT
0.149 GC
/Helvetica 16 F
GS
[1 0 0 1 0 0] CT
-4.5 16 moveto 
1 -1 scale
(0) t 
GR
GR
GS
[1 0 0 1 135 378.70001] CT
0.149 GC
/Helvetica 16 F
GS
[1 0 0 1 0 0] CT
-4.5 16 moveto 
1 -1 scale
(5) t 
GR
GR
GS
[1 0 0 1 197 378.70001] CT
0.149 GC
/Helvetica 16 F
GS
[1 0 0 1 0 0] CT
-9 16 moveto 
1 -1 scale
(10) t 
GR
GR
GS
[1 0 0 1 259 378.70001] CT
0.149 GC
/Helvetica 16 F
GS
[1 0 0 1 0 0] CT
-9 16 moveto 
1 -1 scale
(15) t 
GR
GR
GS
[1 0 0 1 321 378.70001] CT
0.149 GC
/Helvetica 16 F
GS
[1 0 0 1 0 0] CT
-9 16 moveto 
1 -1 scale
(20) t 
GR
GR
GS
[1 0 0 1 383 378.70001] CT
0.149 GC
/Helvetica 16 F
GS
[1 0 0 1 0 0] CT
-9 16 moveto 
1 -1 scale
(25) t 
GR
GR
GS
[1 0 0 1 445 378.70001] CT
0.149 GC
/Helvetica 16 F
GS
[1 0 0 1 0 0] CT
-9 16 moveto 
1 -1 scale
(30) t 
GR
GR
GS
[1 0 0 1 507 378.70001] CT
0.149 GC
/Helvetica 16 F
GS
[1 0 0 1 0 0] CT
-9 16 moveto 
1 -1 scale
(35) t 
GR
GR
GS
[1 0 0 1 290.00021 399.20001] CT
0.149 GC
/Helvetica 17.6 F
GS
[1 0 0 1 0 0] CT
-46.5 18 moveto 
1 -1 scale
(Node index) t 
GR
GR
GS
0.149 GC
2 setlinecap
1 LJ
0.5 LW
N
73 373.5 M
73 31.5 L
S
GR
GS
0.149 GC
2 setlinecap
1 LJ
0.5 LW
N
507 373.5 M
507 31.5 L
S
GR
GS
0.149 GC
2 setlinecap
1 LJ
0.5 LW
N
73 373.5 M
77.34 373.5 L
S
GR
GS
0.149 GC
2 setlinecap
1 LJ
0.5 LW
N
73 305.1 M
77.34 305.1 L
S
GR
GS
0.149 GC
2 setlinecap
1 LJ
0.5 LW
N
73 236.7 M
77.34 236.7 L
S
GR
GS
0.149 GC
2 setlinecap
1 LJ
0.5 LW
N
73 168.3 M
77.34 168.3 L
S
GR
GS
0.149 GC
2 setlinecap
1 LJ
0.5 LW
N
73 99.9 M
77.34 99.9 L
S
GR
GS
0.149 GC
2 setlinecap
1 LJ
0.5 LW
N
73 31.5 M
77.34 31.5 L
S
GR
GS
0.149 GC
2 setlinecap
1 LJ
0.5 LW
N
507 373.5 M
502.66 373.5 L
S
GR
GS
0.149 GC
2 setlinecap
1 LJ
0.5 LW
N
507 305.1 M
502.66 305.1 L
S
GR
GS
0.149 GC
2 setlinecap
1 LJ
0.5 LW
N
507 236.7 M
502.66 236.7 L
S
GR
GS
0.149 GC
2 setlinecap
1 LJ
0.5 LW
N
507 168.3 M
502.66 168.3 L
S
GR
GS
0.149 GC
2 setlinecap
1 LJ
0.5 LW
N
507 99.9 M
502.66 99.9 L
S
GR
GS
0.149 GC
2 setlinecap
1 LJ
0.5 LW
N
507 31.5 M
502.66 31.5 L
S
GR
GS
0.149 GC
2 setlinecap
1 LJ
0.5 LW
N
73 373.5 M
75.17 373.5 L
S
GR
GS
0.149 GC
2 setlinecap
1 LJ
0.5 LW
N
73 359.82 M
75.17 359.82 L
S
GR
GS
0.149 GC
2 setlinecap
1 LJ
0.5 LW
N
73 346.14 M
75.17 346.14 L
S
GR
GS
0.149 GC
2 setlinecap
1 LJ
0.5 LW
N
73 332.46 M
75.17 332.46 L
S
GR
GS
0.149 GC
2 setlinecap
1 LJ
0.5 LW
N
73 318.78 M
75.17 318.78 L
S
GR
GS
0.149 GC
2 setlinecap
1 LJ
0.5 LW
N
73 305.1 M
75.17 305.1 L
S
GR
GS
0.149 GC
2 setlinecap
1 LJ
0.5 LW
N
73 291.42 M
75.17 291.42 L
S
GR
GS
0.149 GC
2 setlinecap
1 LJ
0.5 LW
N
73 277.74 M
75.17 277.74 L
S
GR
GS
0.149 GC
2 setlinecap
1 LJ
0.5 LW
N
73 264.06 M
75.17 264.06 L
S
GR
GS
0.149 GC
2 setlinecap
1 LJ
0.5 LW
N
73 250.38 M
75.17 250.38 L
S
GR
GS
0.149 GC
2 setlinecap
1 LJ
0.5 LW
N
73 236.7 M
75.17 236.7 L
S
GR
GS
0.149 GC
2 setlinecap
1 LJ
0.5 LW
N
73 223.02 M
75.17 223.02 L
S
GR
GS
0.149 GC
2 setlinecap
1 LJ
0.5 LW
N
73 209.34 M
75.17 209.34 L
S
GR
GS
0.149 GC
2 setlinecap
1 LJ
0.5 LW
N
73 195.66 M
75.17 195.66 L
S
GR
GS
0.149 GC
2 setlinecap
1 LJ
0.5 LW
N
73 181.98 M
75.17 181.98 L
S
GR
GS
0.149 GC
2 setlinecap
1 LJ
0.5 LW
N
73 168.3 M
75.17 168.3 L
S
GR
GS
0.149 GC
2 setlinecap
1 LJ
0.5 LW
N
73 154.62 M
75.17 154.62 L
S
GR
GS
0.149 GC
2 setlinecap
1 LJ
0.5 LW
N
73 140.94 M
75.17 140.94 L
S
GR
GS
0.149 GC
2 setlinecap
1 LJ
0.5 LW
N
73 127.26 M
75.17 127.26 L
S
GR
GS
0.149 GC
2 setlinecap
1 LJ
0.5 LW
N
73 113.58 M
75.17 113.58 L
S
GR
GS
0.149 GC
2 setlinecap
1 LJ
0.5 LW
N
73 99.9 M
75.17 99.9 L
S
GR
GS
0.149 GC
2 setlinecap
1 LJ
0.5 LW
N
73 86.22 M
75.17 86.22 L
S
GR
GS
0.149 GC
2 setlinecap
1 LJ
0.5 LW
N
73 72.54 M
75.17 72.54 L
S
GR
GS
0.149 GC
2 setlinecap
1 LJ
0.5 LW
N
73 58.86 M
75.17 58.86 L
S
GR
GS
0.149 GC
2 setlinecap
1 LJ
0.5 LW
N
73 45.18 M
75.17 45.18 L
S
GR
GS
0.149 GC
2 setlinecap
1 LJ
0.5 LW
N
73 31.5 M
75.17 31.5 L
S
GR
GS
0.149 GC
2 setlinecap
1 LJ
0.5 LW
N
507 373.5 M
504.83 373.5 L
S
GR
GS
0.149 GC
2 setlinecap
1 LJ
0.5 LW
N
507 359.82 M
504.83 359.82 L
S
GR
GS
0.149 GC
2 setlinecap
1 LJ
0.5 LW
N
507 346.14 M
504.83 346.14 L
S
GR
GS
0.149 GC
2 setlinecap
1 LJ
0.5 LW
N
507 332.46 M
504.83 332.46 L
S
GR
GS
0.149 GC
2 setlinecap
1 LJ
0.5 LW
N
507 318.78 M
504.83 318.78 L
S
GR
GS
0.149 GC
2 setlinecap
1 LJ
0.5 LW
N
507 305.1 M
504.83 305.1 L
S
GR
GS
0.149 GC
2 setlinecap
1 LJ
0.5 LW
N
507 291.42 M
504.83 291.42 L
S
GR
GS
0.149 GC
2 setlinecap
1 LJ
0.5 LW
N
507 277.74 M
504.83 277.74 L
S
GR
GS
0.149 GC
2 setlinecap
1 LJ
0.5 LW
N
507 264.06 M
504.83 264.06 L
S
GR
GS
0.149 GC
2 setlinecap
1 LJ
0.5 LW
N
507 250.38 M
504.83 250.38 L
S
GR
GS
0.149 GC
2 setlinecap
1 LJ
0.5 LW
N
507 236.7 M
504.83 236.7 L
S
GR
GS
0.149 GC
2 setlinecap
1 LJ
0.5 LW
N
507 223.02 M
504.83 223.02 L
S
GR
GS
0.149 GC
2 setlinecap
1 LJ
0.5 LW
N
507 209.34 M
504.83 209.34 L
S
GR
GS
0.149 GC
2 setlinecap
1 LJ
0.5 LW
N
507 195.66 M
504.83 195.66 L
S
GR
GS
0.149 GC
2 setlinecap
1 LJ
0.5 LW
N
507 181.98 M
504.83 181.98 L
S
GR
GS
0.149 GC
2 setlinecap
1 LJ
0.5 LW
N
507 168.3 M
504.83 168.3 L
S
GR
GS
0.149 GC
2 setlinecap
1 LJ
0.5 LW
N
507 154.62 M
504.83 154.62 L
S
GR
GS
0.149 GC
2 setlinecap
1 LJ
0.5 LW
N
507 140.94 M
504.83 140.94 L
S
GR
GS
0.149 GC
2 setlinecap
1 LJ
0.5 LW
N
507 127.26 M
504.83 127.26 L
S
GR
GS
0.149 GC
2 setlinecap
1 LJ
0.5 LW
N
507 113.58 M
504.83 113.58 L
S
GR
GS
0.149 GC
2 setlinecap
1 LJ
0.5 LW
N
507 99.9 M
504.83 99.9 L
S
GR
GS
0.149 GC
2 setlinecap
1 LJ
0.5 LW
N
507 86.22 M
504.83 86.22 L
S
GR
GS
0.149 GC
2 setlinecap
1 LJ
0.5 LW
N
507 72.54 M
504.83 72.54 L
S
GR
GS
0.149 GC
2 setlinecap
1 LJ
0.5 LW
N
507 58.86 M
504.83 58.86 L
S
GR
GS
0.149 GC
2 setlinecap
1 LJ
0.5 LW
N
507 45.18 M
504.83 45.18 L
S
GR
GS
0.149 GC
2 setlinecap
1 LJ
0.5 LW
N
507 31.5 M
504.83 31.5 L
S
GR
GS
[1 0 0 1 30 383] CT
0.149 GC
/Helvetica 16 F
GS
[1 0 0 1 0 0] CT
0 0 moveto 
1 -1 scale
(10) t 
GR
GR
GS
[1 0 0 1 48 375] CT
0.149 GC
/Helvetica 12.8 F
GS
[1 0 0 1 0 0] CT
0 0 moveto 
1 -1 scale
(-20) t 
GR
GR
GS
[1 0 0 1 30 314] CT
0.149 GC
/Helvetica 16 F
GS
[1 0 0 1 0 0] CT
0 0 moveto 
1 -1 scale
(10) t 
GR
GR
GS
[1 0 0 1 48 306] CT
0.149 GC
/Helvetica 12.8 F
GS
[1 0 0 1 0 0] CT
0 0 moveto 
1 -1 scale
(-15) t 
GR
GR
GS
[1 0 0 1 30 246] CT
0.149 GC
/Helvetica 16 F
GS
[1 0 0 1 0 0] CT
0 0 moveto 
1 -1 scale
(10) t 
GR
GR
GS
[1 0 0 1 48 238] CT
0.149 GC
/Helvetica 12.8 F
GS
[1 0 0 1 0 0] CT
0 0 moveto 
1 -1 scale
(-10) t 
GR
GR
GS
[1 0 0 1 37 177] CT
0.149 GC
/Helvetica 16 F
GS
[1 0 0 1 0 0] CT
0 0 moveto 
1 -1 scale
(10) t 
GR
GR
GS
[1 0 0 1 55 169] CT
0.149 GC
/Helvetica 12.8 F
GS
[1 0 0 1 0 0] CT
0 0 moveto 
1 -1 scale
(-5) t 
GR
GR
GS
[1 0 0 1 42 109] CT
0.149 GC
/Helvetica 16 F
GS
[1 0 0 1 0 0] CT
0 0 moveto 
1 -1 scale
(10) t 
GR
GR
GS
[1 0 0 1 60 101] CT
0.149 GC
/Helvetica 12.8 F
GS
[1 0 0 1 0 0] CT
0 0 moveto 
1 -1 scale
(0) t 
GR
GR
GS
[1 0 0 1 42 41] CT
0.149 GC
/Helvetica 16 F
GS
[1 0 0 1 0 0] CT
0 0 moveto 
1 -1 scale
(10) t 
GR
GR
GS
[1 0 0 1 60 33] CT
0.149 GC
/Helvetica 12.8 F
GS
[1 0 0 1 0 0] CT
0 0 moveto 
1 -1 scale
(5) t 
GR
GR
GS
[0 -1 1 0 26.8 202.49983] CT
0.149 GC
/Helvetica 17.6 F
GS
[1 0 0 1 0 0] CT
-60 -4 moveto 
1 -1 scale
(singular values) t 
GR
GR
GS
[1 0 0 1 85.4 91.1549] CT
10.0 ML
N
0 -3 M
0 3 L
-3 0 M
3 0 L
-2.121 -2.121 M
2.121 2.121 L
-2.121 2.121 M
2.121 -2.121 L
S
GR
GS
[1 0 0 1 97.8 96.28973] CT
10.0 ML
N
0 -3 M
0 3 L
-3 0 M
3 0 L
-2.121 -2.121 M
2.121 2.121 L
-2.121 2.121 M
2.121 -2.121 L
S
GR
GS
[1 0 0 1 110.2 98.29092] CT
10.0 ML
N
0 -3 M
0 3 L
-3 0 M
3 0 L
-2.121 -2.121 M
2.121 2.121 L
-2.121 2.121 M
2.121 -2.121 L
S
GR
GS
[1 0 0 1 122.6 101.47635] CT
10.0 ML
N
0 -3 M
0 3 L
-3 0 M
3 0 L
-2.121 -2.121 M
2.121 2.121 L
-2.121 2.121 M
2.121 -2.121 L
S
GR
GS
[1 0 0 1 135 101.69924] CT
10.0 ML
N
0 -3 M
0 3 L
-3 0 M
3 0 L
-2.121 -2.121 M
2.121 2.121 L
-2.121 2.121 M
2.121 -2.121 L
S
GR
GS
[1 0 0 1 147.40001 102.30396] CT
10.0 ML
N
0 -3 M
0 3 L
-3 0 M
3 0 L
-2.121 -2.121 M
2.121 2.121 L
-2.121 2.121 M
2.121 -2.121 L
S
GR
GS
[1 0 0 1 159.8 102.99357] CT
10.0 ML
N
0 -3 M
0 3 L
-3 0 M
3 0 L
-2.121 -2.121 M
2.121 2.121 L
-2.121 2.121 M
2.121 -2.121 L
S
GR
GS
[1 0 0 1 172.2 104.23321] CT
10.0 ML
N
0 -3 M
0 3 L
-3 0 M
3 0 L
-2.121 -2.121 M
2.121 2.121 L
-2.121 2.121 M
2.121 -2.121 L
S
GR
GS
[1 0 0 1 184.60001 104.41557] CT
10.0 ML
N
0 -3 M
0 3 L
-3 0 M
3 0 L
-2.121 -2.121 M
2.121 2.121 L
-2.121 2.121 M
2.121 -2.121 L
S
GR
GS
[1 0 0 1 197 104.90874] CT
10.0 ML
N
0 -3 M
0 3 L
-3 0 M
3 0 L
-2.121 -2.121 M
2.121 2.121 L
-2.121 2.121 M
2.121 -2.121 L
S
GR
GS
[1 0 0 1 209.40001 107.25945] CT
10.0 ML
N
0 -3 M
0 3 L
-3 0 M
3 0 L
-2.121 -2.121 M
2.121 2.121 L
-2.121 2.121 M
2.121 -2.121 L
S
GR
GS
[1 0 0 1 221.8 110.40819] CT
10.0 ML
N
0 -3 M
0 3 L
-3 0 M
3 0 L
-2.121 -2.121 M
2.121 2.121 L
-2.121 2.121 M
2.121 -2.121 L
S
GR
GS
[1 0 0 1 234.2 110.79799] CT
10.0 ML
N
0 -3 M
0 3 L
-3 0 M
3 0 L
-2.121 -2.121 M
2.121 2.121 L
-2.121 2.121 M
2.121 -2.121 L
S
GR
GS
[1 0 0 1 246.60001 114.80623] CT
10.0 ML
N
0 -3 M
0 3 L
-3 0 M
3 0 L
-2.121 -2.121 M
2.121 2.121 L
-2.121 2.121 M
2.121 -2.121 L
S
GR
GS
[1 0 0 1 259 115.89127] CT
10.0 ML
N
0 -3 M
0 3 L
-3 0 M
3 0 L
-2.121 -2.121 M
2.121 2.121 L
-2.121 2.121 M
2.121 -2.121 L
S
GR
GS
[1 0 0 1 271.39999 116.62988] CT
10.0 ML
N
0 -3 M
0 3 L
-3 0 M
3 0 L
-2.121 -2.121 M
2.121 2.121 L
-2.121 2.121 M
2.121 -2.121 L
S
GR
GS
[1 0 0 1 283.79999 118.53249] CT
10.0 ML
N
0 -3 M
0 3 L
-3 0 M
3 0 L
-2.121 -2.121 M
2.121 2.121 L
-2.121 2.121 M
2.121 -2.121 L
S
GR
GS
[1 0 0 1 296.20001 120.12191] CT
10.0 ML
N
0 -3 M
0 3 L
-3 0 M
3 0 L
-2.121 -2.121 M
2.121 2.121 L
-2.121 2.121 M
2.121 -2.121 L
S
GR
GS
[1 0 0 1 308.60001 121.85676] CT
10.0 ML
N
0 -3 M
0 3 L
-3 0 M
3 0 L
-2.121 -2.121 M
2.121 2.121 L
-2.121 2.121 M
2.121 -2.121 L
S
GR
GS
[1 0 0 1 321 132.91228] CT
10.0 ML
N
0 -3 M
0 3 L
-3 0 M
3 0 L
-2.121 -2.121 M
2.121 2.121 L
-2.121 2.121 M
2.121 -2.121 L
S
GR
GS
[1 0 0 1 333.40002 134.57462] CT
10.0 ML
N
0 -3 M
0 3 L
-3 0 M
3 0 L
-2.121 -2.121 M
2.121 2.121 L
-2.121 2.121 M
2.121 -2.121 L
S
GR
GS
[1 0 0 1 345.80002 138.56155] CT
10.0 ML
N
0 -3 M
0 3 L
-3 0 M
3 0 L
-2.121 -2.121 M
2.121 2.121 L
-2.121 2.121 M
2.121 -2.121 L
S
GR
GS
[1 0 0 1 358.20001 161.83386] CT
10.0 ML
N
0 -3 M
0 3 L
-3 0 M
3 0 L
-2.121 -2.121 M
2.121 2.121 L
-2.121 2.121 M
2.121 -2.121 L
S
GR
GS
[1 0 0 1 370.60001 307.18134] CT
10.0 ML
N
0 -3 M
0 3 L
-3 0 M
3 0 L
-2.121 -2.121 M
2.121 2.121 L
-2.121 2.121 M
2.121 -2.121 L
S
GR
GS
[1 0 0 1 383 309.85809] CT
10.0 ML
N
0 -3 M
0 3 L
-3 0 M
3 0 L
-2.121 -2.121 M
2.121 2.121 L
-2.121 2.121 M
2.121 -2.121 L
S
GR
GS
[1 0 0 1 395.39999 310.8606] CT
10.0 ML
N
0 -3 M
0 3 L
-3 0 M
3 0 L
-2.121 -2.121 M
2.121 2.121 L
-2.121 2.121 M
2.121 -2.121 L
S
GR
GS
[1 0 0 1 407.80002 311.62643] CT
10.0 ML
N
0 -3 M
0 3 L
-3 0 M
3 0 L
-2.121 -2.121 M
2.121 2.121 L
-2.121 2.121 M
2.121 -2.121 L
S
GR
GS
[1 0 0 1 420.20001 312.41901] CT
10.0 ML
N
0 -3 M
0 3 L
-3 0 M
3 0 L
-2.121 -2.121 M
2.121 2.121 L
-2.121 2.121 M
2.121 -2.121 L
S
GR
GS
[1 0 0 1 432.60001 312.87225] CT
10.0 ML
N
0 -3 M
0 3 L
-3 0 M
3 0 L
-2.121 -2.121 M
2.121 2.121 L
-2.121 2.121 M
2.121 -2.121 L
S
GR
GS
[1 0 0 1 445 314.20801] CT
10.0 ML
N
0 -3 M
0 3 L
-3 0 M
3 0 L
-2.121 -2.121 M
2.121 2.121 L
-2.121 2.121 M
2.121 -2.121 L
S
GR
GS
[1 0 0 1 457.39999 315.89111] CT
10.0 ML
N
0 -3 M
0 3 L
-3 0 M
3 0 L
-2.121 -2.121 M
2.121 2.121 L
-2.121 2.121 M
2.121 -2.121 L
S
GR
GS
[1 0 0 1 469.79999 317.53061] CT
10.0 ML
N
0 -3 M
0 3 L
-3 0 M
3 0 L
-2.121 -2.121 M
2.121 2.121 L
-2.121 2.121 M
2.121 -2.121 L
S
GR
GS
[1 0 0 1 482.20001 320.79373] CT
10.0 ML
N
0 -3 M
0 3 L
-3 0 M
3 0 L
-2.121 -2.121 M
2.121 2.121 L
-2.121 2.121 M
2.121 -2.121 L
S
GR
GS
[1 0 0 1 494.60001 327.06689] CT
10.0 ML
N
0 -3 M
0 3 L
-3 0 M
3 0 L
-2.121 -2.121 M
2.121 2.121 L
-2.121 2.121 M
2.121 -2.121 L
S
GR
GS
1 0 0 RC
1 LJ
2 LW
N
364.4 373.5 M
364.4 31.5 L
S
GR
%%Trailer
%%Pages: 1
%%EOF
