%!PS-Adobe-3.0 EPSF-3.0
%%Creator: (MATLAB, The Mathworks, Inc. Version 9.2.0.556344 \(R2017a\). Operating System: Mac OS X)
%%Title: figures/graph_ID_Uhat1_ex2.eps
%%CreationDate: 2017-10-23T16:04:30
%%Pages: (atend)
%%BoundingBox:    86   142   494   270
%%LanguageLevel: 3
%%EndComments
%%BeginProlog
%%BeginResource: procset (Apache XML Graphics Std ProcSet) 1.2 0
%%Version: 1.2 0
%%Copyright: (Copyright 2001-2003,2010 The Apache Software Foundation. License terms: http://www.apache.org/licenses/LICENSE-2.0)
/bd{bind def}bind def
/ld{load def}bd
/GR/grestore ld
/M/moveto ld
/LJ/setlinejoin ld
/C/curveto ld
/f/fill ld
/LW/setlinewidth ld
/GC/setgray ld
/t/show ld
/N/newpath ld
/CT/concat ld
/cp/closepath ld
/S/stroke ld
/L/lineto ld
/CC/setcmykcolor ld
/A/ashow ld
/GS/gsave ld
/RC/setrgbcolor ld
/RM/rmoveto ld
/ML/setmiterlimit ld
/re {4 2 roll M
1 index 0 rlineto
0 exch rlineto
neg 0 rlineto
cp } bd
/_ctm matrix def
/_tm matrix def
/BT { _ctm currentmatrix pop matrix _tm copy pop 0 0 moveto } bd
/ET { _ctm setmatrix } bd
/iTm { _ctm setmatrix _tm concat } bd
/Tm { _tm astore pop iTm 0 0 moveto } bd
/ux 0.0 def
/uy 0.0 def
/F {
  /Tp exch def
  /Tf exch def
  Tf findfont Tp scalefont setfont
  /cf Tf def  /cs Tp def
} bd
/ULS {currentpoint /uy exch def /ux exch def} bd
/ULE {
  /Tcx currentpoint pop def
  gsave
  newpath
  cf findfont cs scalefont dup
  /FontMatrix get 0 get /Ts exch def /FontInfo get dup
  /UnderlinePosition get Ts mul /To exch def
  /UnderlineThickness get Ts mul /Tt exch def
  ux uy To add moveto  Tcx uy To add lineto
  Tt setlinewidth stroke
  grestore
} bd
/OLE {
  /Tcx currentpoint pop def
  gsave
  newpath
  cf findfont cs scalefont dup
  /FontMatrix get 0 get /Ts exch def /FontInfo get dup
  /UnderlinePosition get Ts mul /To exch def
  /UnderlineThickness get Ts mul /Tt exch def
  ux uy To add cs add moveto Tcx uy To add cs add lineto
  Tt setlinewidth stroke
  grestore
} bd
/SOE {
  /Tcx currentpoint pop def
  gsave
  newpath
  cf findfont cs scalefont dup
  /FontMatrix get 0 get /Ts exch def /FontInfo get dup
  /UnderlinePosition get Ts mul /To exch def
  /UnderlineThickness get Ts mul /Tt exch def
  ux uy To add cs 10 mul 26 idiv add moveto Tcx uy To add cs 10 mul 26 idiv add lineto
  Tt setlinewidth stroke
  grestore
} bd
/QT {
/Y22 exch store
/X22 exch store
/Y21 exch store
/X21 exch store
currentpoint
/Y21 load 2 mul add 3 div exch
/X21 load 2 mul add 3 div exch
/X21 load 2 mul /X22 load add 3 div
/Y21 load 2 mul /Y22 load add 3 div
/X22 load /Y22 load curveto
} bd
/SSPD {
dup length /d exch dict def
{
/v exch def
/k exch def
currentpagedevice k known {
/cpdv currentpagedevice k get def
v cpdv ne {
/upd false def
/nullv v type /nulltype eq def
/nullcpdv cpdv type /nulltype eq def
nullv nullcpdv or
{
/upd true def
} {
/sametype v type cpdv type eq def
sametype {
v type /arraytype eq {
/vlen v length def
/cpdvlen cpdv length def
vlen cpdvlen eq {
0 1 vlen 1 sub {
/i exch def
/obj v i get def
/cpdobj cpdv i get def
obj cpdobj ne {
/upd true def
exit
} if
} for
} {
/upd true def
} ifelse
} {
v type /dicttype eq {
v {
/dv exch def
/dk exch def
/cpddv cpdv dk get def
dv cpddv ne {
/upd true def
exit
} if
} forall
} {
/upd true def
} ifelse
} ifelse
} if
} ifelse
upd true eq {
d k v put
} if
} if
} if
} forall
d length 0 gt {
d setpagedevice
} if
} bd
/RE { % /NewFontName [NewEncodingArray] /FontName RE -
  findfont dup length dict begin
  {
    1 index /FID ne
    {def} {pop pop} ifelse
  } forall
  /Encoding exch def
  /FontName 1 index def
  currentdict definefont pop
  end
} bind def
%%EndResource
%%BeginResource: procset (Apache XML Graphics EPS ProcSet) 1.0 0
%%Version: 1.0 0
%%Copyright: (Copyright 2002-2003 The Apache Software Foundation. License terms: http://www.apache.org/licenses/LICENSE-2.0)
/BeginEPSF { %def
/b4_Inc_state save def         % Save state for cleanup
/dict_count countdictstack def % Count objects on dict stack
/op_count count 1 sub def      % Count objects on operand stack
userdict begin                 % Push userdict on dict stack
/showpage { } def              % Redefine showpage, { } = null proc
0 setgray 0 setlinecap         % Prepare graphics state
1 setlinewidth 0 setlinejoin
10 setmiterlimit [ ] 0 setdash newpath
/languagelevel where           % If level not equal to 1 then
{pop languagelevel             % set strokeadjust and
1 ne                           % overprint to their defaults.
{false setstrokeadjust false setoverprint
} if
} if
} bd
/EndEPSF { %def
count op_count sub {pop} repeat            % Clean up stacks
countdictstack dict_count sub {end} repeat
b4_Inc_state restore
} bd
%%EndResource
%FOPBeginFontDict
%%IncludeResource: font Courier-Bold
%%IncludeResource: font Helvetica
%%IncludeResource: font Courier-BoldOblique
%%IncludeResource: font Courier-Oblique
%%IncludeResource: font Times-Roman
%%IncludeResource: font Helvetica-BoldOblique
%%IncludeResource: font Helvetica-Bold
%%IncludeResource: font Helvetica-Oblique
%%IncludeResource: font Times-BoldItalic
%%IncludeResource: font Courier
%%IncludeResource: font Times-Italic
%%IncludeResource: font Times-Bold
%%IncludeResource: font Symbol
%%IncludeResource: font ZapfDingbats
%FOPEndFontDict
%%BeginResource: encoding WinAnsiEncoding
/WinAnsiEncoding [
/.notdef /.notdef /.notdef /.notdef /.notdef
/.notdef /.notdef /.notdef /.notdef /.notdef
/.notdef /.notdef /.notdef /.notdef /.notdef
/.notdef /.notdef /.notdef /.notdef /.notdef
/.notdef /.notdef /.notdef /.notdef /.notdef
/.notdef /.notdef /.notdef /.notdef /.notdef
/.notdef /.notdef /space /exclam /quotedbl
/numbersign /dollar /percent /ampersand /quotesingle
/parenleft /parenright /asterisk /plus /comma
/hyphen /period /slash /zero /one
/two /three /four /five /six
/seven /eight /nine /colon /semicolon
/less /equal /greater /question /at
/A /B /C /D /E
/F /G /H /I /J
/K /L /M /N /O
/P /Q /R /S /T
/U /V /W /X /Y
/Z /bracketleft /backslash /bracketright /asciicircum
/underscore /quoteleft /a /b /c
/d /e /f /g /h
/i /j /k /l /m
/n /o /p /q /r
/s /t /u /v /w
/x /y /z /braceleft /bar
/braceright /asciitilde /bullet /Euro /bullet
/quotesinglbase /florin /quotedblbase /ellipsis /dagger
/daggerdbl /circumflex /perthousand /Scaron /guilsinglleft
/OE /bullet /Zcaron /bullet /bullet
/quoteleft /quoteright /quotedblleft /quotedblright /bullet
/endash /emdash /asciitilde /trademark /scaron
/guilsinglright /oe /bullet /zcaron /Ydieresis
/space /exclamdown /cent /sterling /currency
/yen /brokenbar /section /dieresis /copyright
/ordfeminine /guillemotleft /logicalnot /sfthyphen /registered
/macron /degree /plusminus /twosuperior /threesuperior
/acute /mu /paragraph /middot /cedilla
/onesuperior /ordmasculine /guillemotright /onequarter /onehalf
/threequarters /questiondown /Agrave /Aacute /Acircumflex
/Atilde /Adieresis /Aring /AE /Ccedilla
/Egrave /Eacute /Ecircumflex /Edieresis /Igrave
/Iacute /Icircumflex /Idieresis /Eth /Ntilde
/Ograve /Oacute /Ocircumflex /Otilde /Odieresis
/multiply /Oslash /Ugrave /Uacute /Ucircumflex
/Udieresis /Yacute /Thorn /germandbls /agrave
/aacute /acircumflex /atilde /adieresis /aring
/ae /ccedilla /egrave /eacute /ecircumflex
/edieresis /igrave /iacute /icircumflex /idieresis
/eth /ntilde /ograve /oacute /ocircumflex
/otilde /odieresis /divide /oslash /ugrave
/uacute /ucircumflex /udieresis /yacute /thorn
/ydieresis
] def
%%EndResource
%FOPBeginFontReencode
/Courier-Bold findfont
dup length dict begin
  {1 index /FID ne {def} {pop pop} ifelse} forall
  /Encoding WinAnsiEncoding def
  currentdict
end
/Courier-Bold exch definefont pop
/Helvetica findfont
dup length dict begin
  {1 index /FID ne {def} {pop pop} ifelse} forall
  /Encoding WinAnsiEncoding def
  currentdict
end
/Helvetica exch definefont pop
/Courier-BoldOblique findfont
dup length dict begin
  {1 index /FID ne {def} {pop pop} ifelse} forall
  /Encoding WinAnsiEncoding def
  currentdict
end
/Courier-BoldOblique exch definefont pop
/Courier-Oblique findfont
dup length dict begin
  {1 index /FID ne {def} {pop pop} ifelse} forall
  /Encoding WinAnsiEncoding def
  currentdict
end
/Courier-Oblique exch definefont pop
/Times-Roman findfont
dup length dict begin
  {1 index /FID ne {def} {pop pop} ifelse} forall
  /Encoding WinAnsiEncoding def
  currentdict
end
/Times-Roman exch definefont pop
/Helvetica-BoldOblique findfont
dup length dict begin
  {1 index /FID ne {def} {pop pop} ifelse} forall
  /Encoding WinAnsiEncoding def
  currentdict
end
/Helvetica-BoldOblique exch definefont pop
/Helvetica-Bold findfont
dup length dict begin
  {1 index /FID ne {def} {pop pop} ifelse} forall
  /Encoding WinAnsiEncoding def
  currentdict
end
/Helvetica-Bold exch definefont pop
/Helvetica-Oblique findfont
dup length dict begin
  {1 index /FID ne {def} {pop pop} ifelse} forall
  /Encoding WinAnsiEncoding def
  currentdict
end
/Helvetica-Oblique exch definefont pop
/Times-BoldItalic findfont
dup length dict begin
  {1 index /FID ne {def} {pop pop} ifelse} forall
  /Encoding WinAnsiEncoding def
  currentdict
end
/Times-BoldItalic exch definefont pop
/Courier findfont
dup length dict begin
  {1 index /FID ne {def} {pop pop} ifelse} forall
  /Encoding WinAnsiEncoding def
  currentdict
end
/Courier exch definefont pop
/Times-Italic findfont
dup length dict begin
  {1 index /FID ne {def} {pop pop} ifelse} forall
  /Encoding WinAnsiEncoding def
  currentdict
end
/Times-Italic exch definefont pop
/Times-Bold findfont
dup length dict begin
  {1 index /FID ne {def} {pop pop} ifelse} forall
  /Encoding WinAnsiEncoding def
  currentdict
end
/Times-Bold exch definefont pop
%FOPEndFontReencode
%%EndProlog
%%Page: 1 1
%%PageBoundingBox: 0 0 560 420
%%BeginPageSetup
[1 0 0 -1 0 420] CT
%%EndPageSetup
GS
1 GC
N
0 0 560 420 re
f
GR
GS
1 GC
N
0 0 560 420 re
f
GR
GS
[1 0 0 1 183.12828 179.41388] CT
0 0 1 RC
N
3.036 -0.5 M
3.036 -2.453 1.453 -4.036 -0.5 -4.036 C
-2.453 -4.036 -4.036 -2.453 -4.036 -0.5 C
-4.036 1.453 -2.453 3.036 -0.5 3.036 C
1.453 3.036 3.036 1.453 3.036 -0.5 C
f
GR
GS
[1 0 0 1 183.12828 179.41388] CT
0 0 1 RC
10.0 ML
N
3.036 -0.5 M
3.036 -2.453 1.453 -4.036 -0.5 -4.036 C
-2.453 -4.036 -4.036 -2.453 -4.036 -0.5 C
-4.036 1.453 -2.453 3.036 -0.5 3.036 C
1.453 3.036 3.036 1.453 3.036 -0.5 C
S
GR
GS
0.6 GC
1 LJ
N
183.128 179.414 M
185.133 195.705 L
S
GR
GS
1 setlinecap
1 LJ
1.5 LW
N
183.128 166.635 M
183.128 179.414 L
S
GR
GS
0.6 GC
1 LJ
N
192.168 184.683 M
183.128 179.414 L
S
GR
GS
0.6 GC
1 LJ
N
183.128 179.414 M
192.168 184.683 L
S
GR
GS
0.6 GC
1 LJ
N
185.133 195.705 M
183.128 179.414 L
S
GR
GS
[1 0 0 1 183.12828 166.63544] CT
10.0 ML
1.5 LW
N
0 -5 M
0 5 L
-5 0 M
5 0 L
S
GR
GS
[1 0 0 1 317.45551 193.91316] CT
1 0 0 RC
10.0 ML
1.5 LW
N
0 -5 M
0 5 L
-5 0 M
5 0 L
S
GR
GS
1 0 0 RC
1 setlinecap
1 LJ
1.5 LW
N
317.456 193.913 M
317.456 182.689 L
S
GR
GS
0.6 GC
1 LJ
N
288.866 195.38 M
317.456 182.689 L
S
GR
GS
0.6 GC
1 LJ
N
317.456 182.689 M
288.866 195.38 L
S
GR
GS
0.6 GC
1 LJ
N
350.634 186.831 M
317.456 182.689 L
S
GR
GS
0.6 GC
1 LJ
N
317.456 182.689 M
239.295 185.632 L
S
GR
GS
0.6 GC
1 LJ
N
239.295 185.632 M
317.456 182.689 L
S
GR
GS
[1 0 0 1 317.45551 182.6886] CT
0 0 1 RC
N
/f626426221{3.036 -0.5 M
3.036 -2.453 1.453 -4.036 -0.5 -4.036 C
-2.453 -4.036 -4.036 -2.453 -4.036 -0.5 C
-4.036 1.453 -2.453 3.036 -0.5 3.036 C
1.453 3.036 3.036 1.453 3.036 -0.5 C}def
f626426221
f
GR
GS
[1 0 0 1 317.45551 182.6886] CT
0 0 1 RC
10.0 ML
N
3.036 -0.5 M
3.036 -2.453 1.453 -4.036 -0.5 -4.036 C
-2.453 -4.036 -4.036 -2.453 -4.036 -0.5 C
-4.036 1.453 -2.453 3.036 -0.5 3.036 C
1.453 3.036 3.036 1.453 3.036 -0.5 C
S
GR
GS
0.6 GC
10.0 ML
N
317.456 182.689 M
350.634 186.831 L
S
GR
GS
0.6 GC
10.0 ML
N
185.133 195.705 M
192.168 184.683 L
S
GR
GS
1 setlinecap
1 LJ
1.5 LW
N
192.168 166.185 M
192.168 184.683 L
S
GR
GS
0.6 GC
1 LJ
N
192.168 184.683 M
170.633 194.033 L
S
GR
GS
0.6 GC
1 LJ
N
192.168 184.683 M
239.295 185.632 L
S
GR
GS
0.6 GC
1 LJ
N
192.168 184.683 M
185.133 195.705 L
S
GR
GS
[1 0 0 1 192.16768 184.68298] CT
0 0 1 RC
N
f626426221
f
GR
GS
[1 0 0 1 192.16768 184.68298] CT
0 0 1 RC
10.0 ML
N
3.036 -0.5 M
3.036 -2.453 1.453 -4.036 -0.5 -4.036 C
-2.453 -4.036 -4.036 -2.453 -4.036 -0.5 C
-4.036 1.453 -2.453 3.036 -0.5 3.036 C
1.453 3.036 3.036 1.453 3.036 -0.5 C
S
GR
GS
0.6 GC
10.0 ML
N
170.633 194.033 M
192.168 184.683 L
S
GR
GS
0.6 GC
10.0 ML
N
239.295 185.632 M
192.168 184.683 L
S
GR
GS
0.6 GC
10.0 ML
N
170.633 194.033 M
142.636 184.968 L
S
GR
GS
1 setlinecap
1 LJ
1.5 LW
N
142.636 158.939 M
142.636 184.968 L
S
GR
GS
0.6 GC
1 LJ
N
142.636 184.968 M
185.133 195.705 L
S
GR
GS
0.6 GC
1 LJ
N
185.133 195.705 M
142.636 184.968 L
S
GR
GS
0.6 GC
1 LJ
N
142.636 184.968 M
170.633 194.033 L
S
GR
GS
[1 0 0 1 142.63602 184.96829] CT
0 0 1 RC
N
f626426221
f
GR
GS
[1 0 0 1 142.63602 184.96829] CT
0 0 1 RC
10.0 ML
N
3.036 -0.5 M
3.036 -2.453 1.453 -4.036 -0.5 -4.036 C
-2.453 -4.036 -4.036 -2.453 -4.036 -0.5 C
-4.036 1.453 -2.453 3.036 -0.5 3.036 C
1.453 3.036 3.036 1.453 3.036 -0.5 C
S
GR
GS
[1 0 0 1 192.16768 166.18459] CT
10.0 ML
1.5 LW
N
0 -5 M
0 5 L
-5 0 M
5 0 L
S
GR
GS
0.6 GC
10.0 ML
N
276.095 191.013 M
239.295 185.632 L
S
GR
GS
0.6 GC
10.0 ML
N
170.633 194.033 M
239.295 185.632 L
S
GR
GS
0.6 GC
10.0 ML
N
185.133 195.705 M
239.295 185.632 L
S
GR
GS
0.6 GC
10.0 ML
N
239.295 185.632 M
185.133 195.705 L
S
GR
GS
1 setlinecap
1 LJ
1.5 LW
N
239.295 164.619 M
239.295 185.632 L
S
GR
GS
0.6 GC
1 LJ
N
239.295 185.632 M
170.633 194.033 L
S
GR
GS
[1 0 0 1 239.29494 185.63158] CT
0 0 1 RC
N
f626426221
f
GR
GS
[1 0 0 1 239.29494 185.63158] CT
0 0 1 RC
10.0 ML
N
3.036 -0.5 M
3.036 -2.453 1.453 -4.036 -0.5 -4.036 C
-2.453 -4.036 -4.036 -2.453 -4.036 -0.5 C
-4.036 1.453 -2.453 3.036 -0.5 3.036 C
1.453 3.036 3.036 1.453 3.036 -0.5 C
S
GR
GS
0.6 GC
10.0 ML
N
239.295 185.632 M
276.095 191.013 L
S
GR
GS
[1 0 0 1 142.63602 158.93936] CT
10.0 ML
1.5 LW
N
0 -5 M
0 5 L
-5 0 M
5 0 L
S
GR
GS
[1 0 0 1 239.29494 164.6188] CT
10.0 ML
1.5 LW
N
0 -5 M
0 5 L
-5 0 M
5 0 L
S
GR
GS
[1 0 0 1 350.63431 196.39908] CT
1 0 0 RC
10.0 ML
1.5 LW
N
0 -5 M
0 5 L
-5 0 M
5 0 L
S
GR
GS
1 0 0 RC
1 setlinecap
1 LJ
1.5 LW
N
350.634 196.399 M
350.634 186.831 L
S
GR
GS
0.6 GC
1 LJ
N
350.634 186.831 M
288.866 195.38 L
S
GR
GS
0.6 GC
1 LJ
N
288.866 195.38 M
350.634 186.831 L
S
GR
GS
0.6 GC
1 LJ
N
276.095 191.013 M
350.634 186.831 L
S
GR
GS
[1 0 0 1 350.63431 186.83142] CT
0 0 1 RC
N
f626426221
f
GR
GS
[1 0 0 1 350.63431 186.83142] CT
0 0 1 RC
10.0 ML
N
3.036 -0.5 M
3.036 -2.453 1.453 -4.036 -0.5 -4.036 C
-2.453 -4.036 -4.036 -2.453 -4.036 -0.5 C
-4.036 1.453 -2.453 3.036 -0.5 3.036 C
1.453 3.036 3.036 1.453 3.036 -0.5 C
S
GR
GS
0.6 GC
10.0 ML
N
350.634 186.831 M
276.095 191.013 L
S
GR
GS
1 0 0 RC
1 setlinecap
1 LJ
1.5 LW
N
170.633 234.992 M
170.633 194.033 L
S
GR
GS
0.6 GC
1 LJ
N
113.32 187.693 M
185.133 195.705 L
S
GR
GS
0.6 GC
1 LJ
N
113.32 187.693 M
170.633 194.033 L
S
GR
GS
[1 0 0 1 113.31973 187.69301] CT
0 0 1 RC
N
f626426221
f
GR
GS
[1 0 0 1 113.31973 187.69301] CT
0 0 1 RC
10.0 ML
N
3.036 -0.5 M
3.036 -2.453 1.453 -4.036 -0.5 -4.036 C
-2.453 -4.036 -4.036 -2.453 -4.036 -0.5 C
-4.036 1.453 -2.453 3.036 -0.5 3.036 C
1.453 3.036 3.036 1.453 3.036 -0.5 C
S
GR
GS
1 setlinecap
1 LJ
1.5 LW
N
113.32 161.664 M
113.32 187.693 L
S
GR
GS
0.6 GC
1 LJ
N
170.633 194.033 M
113.32 187.693 L
S
GR
GS
0.6 GC
1 LJ
N
185.133 195.705 M
113.32 187.693 L
S
GR
GS
[1 0 0 1 113.31973 161.66409] CT
10.0 ML
1.5 LW
N
0 -5 M
0 5 L
-5 0 M
5 0 L
S
GR
GS
0.6 GC
10.0 ML
N
185.133 195.705 M
276.095 191.013 L
S
GR
GS
1 setlinecap
1 LJ
1.5 LW
N
276.095 175.779 M
276.095 191.013 L
S
GR
GS
0.6 GC
1 LJ
N
244.537 205.749 M
276.095 191.013 L
S
GR
GS
0.6 GC
1 LJ
N
276.095 191.013 M
185.133 195.705 L
S
GR
GS
[1 0 0 1 276.09515 191.01329] CT
0 0 1 RC
N
f626426221
f
GR
GS
[1 0 0 1 276.09515 191.01329] CT
0 0 1 RC
10.0 ML
N
3.036 -0.5 M
3.036 -2.453 1.453 -4.036 -0.5 -4.036 C
-2.453 -4.036 -4.036 -2.453 -4.036 -0.5 C
-4.036 1.453 -2.453 3.036 -0.5 3.036 C
1.453 3.036 3.036 1.453 3.036 -0.5 C
S
GR
GS
0.6 GC
10.0 ML
N
276.095 191.013 M
244.537 205.749 L
S
GR
GS
1 setlinecap
1 LJ
1.5 LW
N
92.727 165.447 M
92.727 191.476 L
S
GR
GS
0.6 GC
1 LJ
N
92.727 191.476 M
170.633 194.033 L
S
GR
GS
0.6 GC
1 LJ
N
92.727 191.476 M
185.133 195.705 L
S
GR
GS
[1 0 0 1 92.72727 191.47632] CT
0 0 1 RC
N
f626426221
f
GR
GS
[1 0 0 1 92.72727 191.47632] CT
0 0 1 RC
10.0 ML
N
3.036 -0.5 M
3.036 -2.453 1.453 -4.036 -0.5 -4.036 C
-2.453 -4.036 -4.036 -2.453 -4.036 -0.5 C
-4.036 1.453 -2.453 3.036 -0.5 3.036 C
1.453 3.036 3.036 1.453 3.036 -0.5 C
S
GR
GS
0.6 GC
10.0 ML
N
170.633 194.033 M
92.727 191.476 L
S
GR
GS
0.6 GC
10.0 ML
N
185.133 195.705 M
92.727 191.476 L
S
GR
GS
[1 0 0 1 276.09515 175.77855] CT
10.0 ML
1.5 LW
N
0 -5 M
0 5 L
-5 0 M
5 0 L
S
GR
GS
[1 0 0 1 92.72727 165.44739] CT
10.0 ML
1.5 LW
N
0 -5 M
0 5 L
-5 0 M
5 0 L
S
GR
GS
[1 0 0 1 170.63298 234.99214] CT
1 0 0 RC
10.0 ML
1.5 LW
N
0 -5 M
0 5 L
-5 0 M
5 0 L
S
GR
GS
1 0 0 RC
10.0 ML
1.5 LW
N
185.133 271.543 M
185.133 195.705 L
S
GR
GS
[1 0 0 1 185.13263 271.54303] CT
1 0 0 RC
10.0 ML
1.5 LW
N
0 -5 M
0 5 L
-5 0 M
5 0 L
S
GR
GS
0.6 GC
10.0 ML
N
170.633 194.033 M
185.133 195.705 L
S
GR
GS
0.6 GC
10.0 ML
N
93.4 195.973 M
170.633 194.033 L
S
GR
GS
0.6 GC
10.0 ML
N
170.633 194.033 M
171.391 205.187 L
S
GR
GS
0.6 GC
10.0 ML
N
98.251 200.488 M
170.633 194.033 L
S
GR
GS
0.6 GC
10.0 ML
N
171.391 205.187 M
170.633 194.033 L
S
GR
GS
0.6 GC
10.0 ML
N
244.537 205.749 M
170.633 194.033 L
S
GR
GS
0.6 GC
10.0 ML
N
288.866 195.38 M
170.633 194.033 L
S
GR
GS
0.6 GC
10.0 ML
N
170.633 194.033 M
288.866 195.38 L
S
GR
GS
0.6 GC
10.0 ML
N
185.133 195.705 M
170.633 194.033 L
S
GR
GS
0.6 GC
10.0 ML
N
170.633 194.033 M
98.251 200.488 L
S
GR
GS
0.6 GC
10.0 ML
N
170.633 194.033 M
244.537 205.749 L
S
GR
GS
0.6 GC
10.0 ML
N
170.633 194.033 M
93.4 195.973 L
S
GR
GS
0.6 GC
10.0 ML
N
170.633 194.033 M
221.709 202.817 L
S
GR
GS
0.6 GC
10.0 ML
N
221.709 202.817 M
170.633 194.033 L
S
GR
GS
[1 0 0 1 170.63298 194.03256] CT
0 0 1 RC
N
f626426221
f
GR
GS
[1 0 0 1 170.63298 194.03256] CT
0 0 1 RC
10.0 ML
N
3.036 -0.5 M
3.036 -2.453 1.453 -4.036 -0.5 -4.036 C
-2.453 -4.036 -4.036 -2.453 -4.036 -0.5 C
-4.036 1.453 -2.453 3.036 -0.5 3.036 C
1.453 3.036 3.036 1.453 3.036 -0.5 C
S
GR
GS
0.6 GC
10.0 ML
N
288.866 195.38 M
185.133 195.705 L
S
GR
GS
0.6 GC
10.0 ML
N
288.866 195.38 M
314.391 213.544 L
S
GR
GS
0.6 GC
10.0 ML
N
252.167 196.605 M
288.866 195.38 L
S
GR
GS
[1 0 0 1 288.86594 195.38042] CT
0 0 1 RC
N
f626426221
f
GR
GS
[1 0 0 1 288.86594 195.38042] CT
0 0 1 RC
10.0 ML
N
3.036 -0.5 M
3.036 -2.453 1.453 -4.036 -0.5 -4.036 C
-2.453 -4.036 -4.036 -2.453 -4.036 -0.5 C
-4.036 1.453 -2.453 3.036 -0.5 3.036 C
1.453 3.036 3.036 1.453 3.036 -0.5 C
S
GR
GS
0.6 GC
10.0 ML
N
288.866 195.38 M
252.167 196.605 L
S
GR
GS
0.6 GC
10.0 ML
N
185.133 195.705 M
288.866 195.38 L
S
GR
GS
0.6 GC
10.0 ML
N
314.391 213.544 M
288.866 195.38 L
S
GR
GS
10.0 ML
1.5 LW
N
288.866 156.458 M
288.866 195.38 L
S
GR
GS
1 0 0 RC
1 setlinecap
1 LJ
1.5 LW
N
244.537 209.718 M
244.537 205.749 L
S
GR
GS
0.6 GC
1 LJ
N
185.133 195.705 M
246.156 209.997 L
S
GR
GS
0.6 GC
1 LJ
N
185.133 195.705 M
221.709 202.817 L
S
GR
GS
0.6 GC
1 LJ
N
185.133 195.705 M
137.985 207.39 L
S
GR
GS
0.6 GC
1 LJ
N
185.133 195.705 M
171.391 205.187 L
S
GR
GS
0.6 GC
1 LJ
N
185.133 195.705 M
93.4 195.973 L
S
GR
GS
0.6 GC
1 LJ
N
137.985 207.39 M
185.133 195.705 L
S
GR
GS
[1 0 0 1 185.13263 195.70486] CT
0 0 1 RC
N
f626426221
f
GR
GS
[1 0 0 1 185.13263 195.70486] CT
0 0 1 RC
10.0 ML
N
3.036 -0.5 M
3.036 -2.453 1.453 -4.036 -0.5 -4.036 C
-2.453 -4.036 -4.036 -2.453 -4.036 -0.5 C
-4.036 1.453 -2.453 3.036 -0.5 3.036 C
1.453 3.036 3.036 1.453 3.036 -0.5 C
S
GR
GS
0.6 GC
10.0 ML
N
171.391 205.187 M
185.133 195.705 L
S
GR
GS
0.6 GC
10.0 ML
N
185.133 195.705 M
203.278 211.263 L
S
GR
GS
0.6 GC
10.0 ML
N
252.167 196.605 M
185.133 195.705 L
S
GR
GS
0.6 GC
10.0 ML
N
246.156 209.997 M
185.133 195.705 L
S
GR
GS
0.6 GC
10.0 ML
N
185.133 195.705 M
98.251 200.488 L
S
GR
GS
0.6 GC
10.0 ML
N
221.709 202.817 M
185.133 195.705 L
S
GR
GS
0.6 GC
10.0 ML
N
93.4 195.973 M
185.133 195.705 L
S
GR
GS
0.6 GC
10.0 ML
N
98.251 200.488 M
185.133 195.705 L
S
GR
GS
0.6 GC
10.0 ML
N
203.278 211.263 M
185.133 195.705 L
S
GR
GS
0.6 GC
10.0 ML
N
185.133 195.705 M
252.167 196.605 L
S
GR
GS
1 setlinecap
1 LJ
1.5 LW
N
93.4 169.945 M
93.4 195.973 L
S
GR
GS
[1 0 0 1 93.39962 195.97343] CT
0 0 1 RC
N
f626426221
f
GR
GS
[1 0 0 1 93.39962 195.97343] CT
0 0 1 RC
10.0 ML
N
3.036 -0.5 M
3.036 -2.453 1.453 -4.036 -0.5 -4.036 C
-2.453 -4.036 -4.036 -2.453 -4.036 -0.5 C
-4.036 1.453 -2.453 3.036 -0.5 3.036 C
1.453 3.036 3.036 1.453 3.036 -0.5 C
S
GR
GS
[1 0 0 1 288.86594 156.45834] CT
10.0 ML
1.5 LW
N
0 -5 M
0 5 L
-5 0 M
5 0 L
S
GR
GS
0.6 GC
1 LJ
N
252.167 196.605 M
244.537 205.749 L
S
GR
GS
[1 0 0 1 252.16693 196.60541] CT
0 0 1 RC
N
f626426221
f
GR
GS
[1 0 0 1 252.16693 196.60541] CT
0 0 1 RC
10.0 ML
N
3.036 -0.5 M
3.036 -2.453 1.453 -4.036 -0.5 -4.036 C
-2.453 -4.036 -4.036 -2.453 -4.036 -0.5 C
-4.036 1.453 -2.453 3.036 -0.5 3.036 C
1.453 3.036 3.036 1.453 3.036 -0.5 C
S
GR
GS
0.6 GC
10.0 ML
N
244.537 205.749 M
252.167 196.605 L
S
GR
GS
1 setlinecap
1 LJ
1.5 LW
N
252.167 187.494 M
252.167 196.605 L
S
GR
GS
[1 0 0 1 93.39962 169.9445] CT
10.0 ML
1.5 LW
N
0 -5 M
0 5 L
-5 0 M
5 0 L
S
GR
GS
[1 0 0 1 252.16693 187.49402] CT
10.0 ML
1.5 LW
N
0 -5 M
0 5 L
-5 0 M
5 0 L
S
GR
GS
10.0 ML
1.5 LW
N
98.251 174.459 M
98.251 200.488 L
S
GR
GS
[1 0 0 1 98.25113 200.48784] CT
0 0 1 RC
N
f626426221
f
GR
GS
[1 0 0 1 98.25113 200.48784] CT
0 0 1 RC
10.0 ML
N
3.036 -0.5 M
3.036 -2.453 1.453 -4.036 -0.5 -4.036 C
-2.453 -4.036 -4.036 -2.453 -4.036 -0.5 C
-4.036 1.453 -2.453 3.036 -0.5 3.036 C
1.453 3.036 3.036 1.453 3.036 -0.5 C
S
GR
GS
[1 0 0 1 98.25113 174.45892] CT
10.0 ML
1.5 LW
N
0 -5 M
0 5 L
-5 0 M
5 0 L
S
GR
GS
0.6 GC
1 LJ
N
244.537 205.749 M
221.709 202.817 L
S
GR
GS
0.6 GC
1 LJ
N
171.391 205.187 M
221.709 202.817 L
S
GR
GS
1 setlinecap
1 LJ
1.5 LW
N
221.709 170.724 M
221.709 202.817 L
S
GR
GS
0.6 GC
1 LJ
N
221.709 202.817 M
314.391 213.544 L
S
GR
GS
0.6 GC
1 LJ
N
314.391 213.544 M
221.709 202.817 L
S
GR
GS
[1 0 0 1 221.70932 202.817] CT
0 0 1 RC
N
f626426221
f
GR
GS
[1 0 0 1 221.70932 202.817] CT
0 0 1 RC
10.0 ML
N
3.036 -0.5 M
3.036 -2.453 1.453 -4.036 -0.5 -4.036 C
-2.453 -4.036 -4.036 -2.453 -4.036 -0.5 C
-4.036 1.453 -2.453 3.036 -0.5 3.036 C
1.453 3.036 3.036 1.453 3.036 -0.5 C
S
GR
GS
0.6 GC
10.0 ML
N
221.709 202.817 M
171.391 205.187 L
S
GR
GS
0.6 GC
10.0 ML
N
221.709 202.817 M
244.537 205.749 L
S
GR
GS
[1 0 0 1 221.70932 170.72388] CT
10.0 ML
1.5 LW
N
0 -5 M
0 5 L
-5 0 M
5 0 L
S
GR
GS
1 0 0 RC
1 setlinecap
1 LJ
1.5 LW
N
487.273 208.177 M
487.273 204.713 L
S
GR
GS
[1 0 0 1 487.27274 208.17654] CT
1 0 0 RC
10.0 ML
1.5 LW
N
0 -5 M
0 5 L
-5 0 M
5 0 L
S
GR
GS
[1 0 0 1 487.27274 204.71317] CT
0 0 1 RC
N
f626426221
f
GR
GS
[1 0 0 1 487.27274 204.71317] CT
0 0 1 RC
10.0 ML
N
3.036 -0.5 M
3.036 -2.453 1.453 -4.036 -0.5 -4.036 C
-2.453 -4.036 -4.036 -2.453 -4.036 -0.5 C
-4.036 1.453 -2.453 3.036 -0.5 3.036 C
1.453 3.036 3.036 1.453 3.036 -0.5 C
S
GR
GS
0.6 GC
1 LJ
N
487.273 204.713 M
436.393 211.422 L
S
GR
GS
0.6 GC
1 LJ
N
419.103 206.751 M
487.273 204.713 L
S
GR
GS
0.6 GC
1 LJ
N
436.393 211.422 M
487.273 204.713 L
S
GR
GS
0.6 GC
1 LJ
N
487.273 204.713 M
419.103 206.751 L
S
GR
GS
0.6 GC
1 LJ
N
171.391 205.187 M
231.263 216.624 L
S
GR
GS
[1 0 0 1 171.39093 205.18697] CT
0 0 1 RC
N
f626426221
f
GR
GS
[1 0 0 1 171.39093 205.18697] CT
0 0 1 RC
10.0 ML
N
3.036 -0.5 M
3.036 -2.453 1.453 -4.036 -0.5 -4.036 C
-2.453 -4.036 -4.036 -2.453 -4.036 -0.5 C
-4.036 1.453 -2.453 3.036 -0.5 3.036 C
1.453 3.036 3.036 1.453 3.036 -0.5 C
S
GR
GS
1 setlinecap
1 LJ
1.5 LW
N
171.391 182.256 M
171.391 205.187 L
S
GR
GS
0.6 GC
1 LJ
N
231.263 216.624 M
171.391 205.187 L
S
GR
GS
[1 0 0 1 244.53723 209.71822] CT
1 0 0 RC
10.0 ML
1.5 LW
N
0 -5 M
0 5 L
-5 0 M
5 0 L
S
GR
GS
0.6 GC
10.0 ML
N
244.537 205.749 M
137.985 207.39 L
S
GR
GS
0.6 GC
10.0 ML
N
244.537 205.749 M
275.956 218.473 L
S
GR
GS
0.6 GC
10.0 ML
N
279.423 214.523 M
244.537 205.749 L
S
GR
GS
0.6 GC
10.0 ML
N
246.156 209.997 M
244.537 205.749 L
S
GR
GS
0.6 GC
10.0 ML
N
244.537 205.749 M
314.391 213.544 L
S
GR
GS
0.6 GC
10.0 ML
N
137.985 207.39 M
244.537 205.749 L
S
GR
GS
0.6 GC
10.0 ML
N
244.537 205.749 M
279.423 214.523 L
S
GR
GS
0.6 GC
10.0 ML
N
244.537 205.749 M
231.263 216.624 L
S
GR
GS
0.6 GC
10.0 ML
N
314.391 213.544 M
244.537 205.749 L
S
GR
GS
0.6 GC
10.0 ML
N
275.956 218.473 M
244.537 205.749 L
S
GR
GS
0.6 GC
10.0 ML
N
244.537 205.749 M
246.156 209.997 L
S
GR
GS
[1 0 0 1 244.53723 205.74947] CT
0 0 1 RC
N
f626426221
f
GR
GS
[1 0 0 1 244.53723 205.74947] CT
0 0 1 RC
10.0 ML
N
3.036 -0.5 M
3.036 -2.453 1.453 -4.036 -0.5 -4.036 C
-2.453 -4.036 -4.036 -2.453 -4.036 -0.5 C
-4.036 1.453 -2.453 3.036 -0.5 3.036 C
1.453 3.036 3.036 1.453 3.036 -0.5 C
S
GR
GS
0.6 GC
10.0 ML
N
231.263 216.624 M
244.537 205.749 L
S
GR
GS
[1 0 0 1 171.39093 182.256] CT
10.0 ML
1.5 LW
N
0 -5 M
0 5 L
-5 0 M
5 0 L
S
GR
GS
[1 0 0 1 419.10339 206.75121] CT
0 0 1 RC
N
f626426221
f
GR
GS
[1 0 0 1 419.10339 206.75121] CT
0 0 1 RC
10.0 ML
N
3.036 -0.5 M
3.036 -2.453 1.453 -4.036 -0.5 -4.036 C
-2.453 -4.036 -4.036 -2.453 -4.036 -0.5 C
-4.036 1.453 -2.453 3.036 -0.5 3.036 C
1.453 3.036 3.036 1.453 3.036 -0.5 C
S
GR
GS
0.6 GC
10.0 ML
N
419.103 206.751 M
314.391 213.544 L
S
GR
GS
0.6 GC
10.0 ML
N
314.391 213.544 M
419.103 206.751 L
S
GR
GS
1 setlinecap
1 LJ
1.5 LW
N
419.103 198.981 M
419.103 206.751 L
S
GR
GS
0.6 GC
1 LJ
N
419.103 206.751 M
436.393 211.422 L
S
GR
GS
0.6 GC
1 LJ
N
436.393 211.422 M
419.103 206.751 L
S
GR
GS
0.6 GC
1 LJ
N
395.8 212.641 M
419.103 206.751 L
S
GR
GS
0.6 GC
1 LJ
N
419.103 206.751 M
395.8 212.641 L
S
GR
GS
[1 0 0 1 419.10339 198.98073] CT
10.0 ML
1.5 LW
N
0 -5 M
0 5 L
-5 0 M
5 0 L
S
GR
GS
1 setlinecap
1 LJ
1.5 LW
N
137.985 189.605 M
137.985 207.39 L
S
GR
GS
[1 0 0 1 137.98537 207.39032] CT
0 0 1 RC
N
f626426221
f
GR
GS
[1 0 0 1 137.98537 207.39032] CT
0 0 1 RC
10.0 ML
N
3.036 -0.5 M
3.036 -2.453 1.453 -4.036 -0.5 -4.036 C
-2.453 -4.036 -4.036 -2.453 -4.036 -0.5 C
-4.036 1.453 -2.453 3.036 -0.5 3.036 C
1.453 3.036 3.036 1.453 3.036 -0.5 C
S
GR
GS
[1 0 0 1 137.98537 189.60497] CT
10.0 ML
1.5 LW
N
0 -5 M
0 5 L
-5 0 M
5 0 L
S
GR
GS
0.6 GC
1 LJ
N
275.956 218.473 M
246.156 209.997 L
S
GR
GS
[1 0 0 1 246.15602 209.99748] CT
0 0 1 RC
N
f626426221
f
GR
GS
[1 0 0 1 246.15602 209.99748] CT
0 0 1 RC
10.0 ML
N
3.036 -0.5 M
3.036 -2.453 1.453 -4.036 -0.5 -4.036 C
-2.453 -4.036 -4.036 -2.453 -4.036 -0.5 C
-4.036 1.453 -2.453 3.036 -0.5 3.036 C
1.453 3.036 3.036 1.453 3.036 -0.5 C
S
GR
GS
0.6 GC
10.0 ML
N
246.156 209.997 M
275.956 218.473 L
S
GR
GS
0.6 GC
10.0 ML
N
231.263 216.624 M
246.156 209.997 L
S
GR
GS
0.6 GC
10.0 ML
N
314.391 213.544 M
246.156 209.997 L
S
GR
GS
0.6 GC
10.0 ML
N
246.156 209.997 M
231.263 216.624 L
S
GR
GS
0.6 GC
10.0 ML
N
246.156 209.997 M
314.391 213.544 L
S
GR
GS
1 setlinecap
1 LJ
1.5 LW
N
246.156 178.492 M
246.156 209.997 L
S
GR
GS
[1 0 0 1 246.15602 178.49161] CT
10.0 ML
1.5 LW
N
0 -5 M
0 5 L
-5 0 M
5 0 L
S
GR
GS
10.0 ML
1.5 LW
N
203.278 180.018 M
203.278 211.263 L
S
GR
GS
0.6 GC
1 LJ
N
203.278 211.263 M
231.263 216.624 L
S
GR
GS
0.6 GC
1 LJ
N
203.278 211.263 M
314.391 213.544 L
S
GR
GS
0.6 GC
1 LJ
N
231.263 216.624 M
203.278 211.263 L
S
GR
GS
[1 0 0 1 203.27751 211.2634] CT
0 0 1 RC
N
f626426221
f
GR
GS
[1 0 0 1 203.27751 211.2634] CT
0 0 1 RC
10.0 ML
N
3.036 -0.5 M
3.036 -2.453 1.453 -4.036 -0.5 -4.036 C
-2.453 -4.036 -4.036 -2.453 -4.036 -0.5 C
-4.036 1.453 -2.453 3.036 -0.5 3.036 C
1.453 3.036 3.036 1.453 3.036 -0.5 C
S
GR
GS
0.6 GC
10.0 ML
N
314.391 213.544 M
203.278 211.263 L
S
GR
GS
0.6 GC
10.0 ML
N
436.393 211.422 M
412.306 217.769 L
S
GR
GS
0.6 GC
10.0 ML
N
412.306 217.769 M
436.393 211.422 L
S
GR
GS
[1 0 0 1 436.39252 211.42162] CT
0 0 1 RC
N
f626426221
f
GR
GS
[1 0 0 1 436.39252 211.42162] CT
0 0 1 RC
10.0 ML
N
3.036 -0.5 M
3.036 -2.453 1.453 -4.036 -0.5 -4.036 C
-2.453 -4.036 -4.036 -2.453 -4.036 -0.5 C
-4.036 1.453 -2.453 3.036 -0.5 3.036 C
1.453 3.036 3.036 1.453 3.036 -0.5 C
S
GR
GS
0.6 GC
10.0 ML
N
436.393 211.422 M
314.391 213.544 L
S
GR
GS
1 setlinecap
1 LJ
1.5 LW
N
436.393 203.651 M
436.393 211.422 L
S
GR
GS
0.6 GC
1 LJ
N
314.391 213.544 M
436.393 211.422 L
S
GR
GS
[1 0 0 1 436.39252 203.65114] CT
10.0 ML
1.5 LW
N
0 -5 M
0 5 L
-5 0 M
5 0 L
S
GR
GS
[1 0 0 1 314.39148 259.71747] CT
1 0 0 RC
10.0 ML
1.5 LW
N
0 -5 M
0 5 L
-5 0 M
5 0 L
S
GR
GS
1 0 0 RC
10.0 ML
1.5 LW
N
314.391 259.717 M
314.391 213.544 L
S
GR
GS
[1 0 0 1 203.27751 180.01833] CT
10.0 ML
1.5 LW
N
0 -5 M
0 5 L
-5 0 M
5 0 L
S
GR
GS
0.6 GC
10.0 ML
N
314.391 213.544 M
395.8 212.641 L
S
GR
GS
0.6 GC
10.0 ML
N
395.8 212.641 M
412.306 217.769 L
S
GR
GS
[1 0 0 1 395.80008 212.64081] CT
0 0 1 RC
N
f626426221
f
GR
GS
[1 0 0 1 395.80008 212.64081] CT
0 0 1 RC
10.0 ML
N
3.036 -0.5 M
3.036 -2.453 1.453 -4.036 -0.5 -4.036 C
-2.453 -4.036 -4.036 -2.453 -4.036 -0.5 C
-4.036 1.453 -2.453 3.036 -0.5 3.036 C
1.453 3.036 3.036 1.453 3.036 -0.5 C
S
GR
GS
1 setlinecap
1 LJ
1.5 LW
N
395.8 205.642 M
395.8 212.641 L
S
GR
GS
0.6 GC
1 LJ
N
412.306 217.769 M
395.8 212.641 L
S
GR
GS
0.6 GC
1 LJ
N
395.8 212.641 M
314.391 213.544 L
S
GR
GS
[1 0 0 1 395.80008 205.64217] CT
10.0 ML
1.5 LW
N
0 -5 M
0 5 L
-5 0 M
5 0 L
S
GR
GS
0.6 GC
10.0 ML
N
231.263 216.624 M
314.391 213.544 L
S
GR
GS
0.6 GC
10.0 ML
N
275.956 218.473 M
314.391 213.544 L
S
GR
GS
0.6 GC
10.0 ML
N
412.306 217.769 M
314.391 213.544 L
S
GR
GS
[1 0 0 1 314.39148 213.54379] CT
0 0 1 RC
N
f626426221
f
GR
GS
[1 0 0 1 314.39148 213.54379] CT
0 0 1 RC
10.0 ML
N
3.036 -0.5 M
3.036 -2.453 1.453 -4.036 -0.5 -4.036 C
-2.453 -4.036 -4.036 -2.453 -4.036 -0.5 C
-4.036 1.453 -2.453 3.036 -0.5 3.036 C
1.453 3.036 3.036 1.453 3.036 -0.5 C
S
GR
GS
0.6 GC
10.0 ML
N
314.391 213.544 M
412.306 217.769 L
S
GR
GS
0.6 GC
10.0 ML
N
314.391 213.544 M
231.263 216.624 L
S
GR
GS
0.6 GC
10.0 ML
N
324.039 225.575 M
314.391 213.544 L
S
GR
GS
0.6 GC
10.0 ML
N
314.391 213.544 M
324.039 225.575 L
S
GR
GS
0.6 GC
10.0 ML
N
272.5 226.086 M
314.391 213.544 L
S
GR
GS
0.6 GC
10.0 ML
N
314.391 213.544 M
231.798 225.052 L
S
GR
GS
0.6 GC
10.0 ML
N
231.798 225.052 M
314.391 213.544 L
S
GR
GS
0.6 GC
10.0 ML
N
279.423 214.523 M
314.391 213.544 L
S
GR
GS
0.6 GC
10.0 ML
N
379.225 225.01 M
314.391 213.544 L
S
GR
GS
0.6 GC
10.0 ML
N
314.391 213.544 M
279.423 214.523 L
S
GR
GS
0.6 GC
10.0 ML
N
314.391 213.544 M
275.956 218.473 L
S
GR
GS
0.6 GC
10.0 ML
N
314.391 213.544 M
272.5 226.086 L
S
GR
GS
0.6 GC
10.0 ML
N
314.391 213.544 M
379.225 225.01 L
S
GR
GS
0.6 GC
10.0 ML
N
275.956 218.473 M
279.423 214.523 L
S
GR
GS
0.6 GC
10.0 ML
N
279.423 214.523 M
275.956 218.473 L
S
GR
GS
0.6 GC
10.0 ML
N
231.263 216.624 M
279.423 214.523 L
S
GR
GS
1 setlinecap
1 LJ
1.5 LW
N
279.423 199.918 M
279.423 214.523 L
S
GR
GS
0.6 GC
1 LJ
N
279.423 214.523 M
231.263 216.624 L
S
GR
GS
[1 0 0 1 279.42267 214.52272] CT
0 0 1 RC
N
f626426221
f
GR
GS
[1 0 0 1 279.42267 214.52272] CT
0 0 1 RC
10.0 ML
N
3.036 -0.5 M
3.036 -2.453 1.453 -4.036 -0.5 -4.036 C
-2.453 -4.036 -4.036 -2.453 -4.036 -0.5 C
-4.036 1.453 -2.453 3.036 -0.5 3.036 C
1.453 3.036 3.036 1.453 3.036 -0.5 C
S
GR
GS
[1 0 0 1 279.42267 199.91772] CT
10.0 ML
1.5 LW
N
0 -5 M
0 5 L
-5 0 M
5 0 L
S
GR
GS
[1 0 0 1 231.26251 234.81581] CT
1 0 0 RC
10.0 ML
1.5 LW
N
0 -5 M
0 5 L
-5 0 M
5 0 L
S
GR
GS
1 0 0 RC
1 setlinecap
1 LJ
1.5 LW
N
231.263 234.816 M
231.263 216.624 L
S
GR
GS
[1 0 0 1 231.26251 216.62392] CT
0 0 1 RC
N
f626426221
f
GR
GS
[1 0 0 1 231.26251 216.62392] CT
0 0 1 RC
10.0 ML
N
3.036 -0.5 M
3.036 -2.453 1.453 -4.036 -0.5 -4.036 C
-2.453 -4.036 -4.036 -2.453 -4.036 -0.5 C
-4.036 1.453 -2.453 3.036 -0.5 3.036 C
1.453 3.036 3.036 1.453 3.036 -0.5 C
S
GR
GS
0.6 GC
1 LJ
N
231.263 216.624 M
231.798 225.052 L
S
GR
GS
0.6 GC
1 LJ
N
275.956 218.473 M
231.263 216.624 L
S
GR
GS
0.6 GC
1 LJ
N
272.5 226.086 M
231.263 216.624 L
S
GR
GS
0.6 GC
1 LJ
N
231.263 216.624 M
275.956 218.473 L
S
GR
GS
0.6 GC
1 LJ
N
231.798 225.052 M
231.263 216.624 L
S
GR
GS
0.6 GC
1 LJ
N
231.263 216.624 M
272.5 226.086 L
S
GR
GS
[1 0 0 1 412.3064 217.769] CT
0 0 1 RC
N
f626426221
f
GR
GS
[1 0 0 1 412.3064 217.769] CT
0 0 1 RC
10.0 ML
N
3.036 -0.5 M
3.036 -2.453 1.453 -4.036 -0.5 -4.036 C
-2.453 -4.036 -4.036 -2.453 -4.036 -0.5 C
-4.036 1.453 -2.453 3.036 -0.5 3.036 C
1.453 3.036 3.036 1.453 3.036 -0.5 C
S
GR
GS
1 setlinecap
1 LJ
1.5 LW
N
412.306 210.77 M
412.306 217.769 L
S
GR
GS
[1 0 0 1 412.3064 210.77034] CT
10.0 ML
1.5 LW
N
0 -5 M
0 5 L
-5 0 M
5 0 L
S
GR
GS
1 LJ
1.5 LW
N
275.956 215.675 M
275.956 218.473 L
S
GR
GS
0.6 GC
1 LJ
N
275.956 218.473 M
324.039 225.575 L
S
GR
GS
[1 0 0 1 275.95569 218.4731] CT
0 0 1 RC
N
f626426221
f
GR
GS
[1 0 0 1 275.95569 218.4731] CT
0 0 1 RC
10.0 ML
N
3.036 -0.5 M
3.036 -2.453 1.453 -4.036 -0.5 -4.036 C
-2.453 -4.036 -4.036 -2.453 -4.036 -0.5 C
-4.036 1.453 -2.453 3.036 -0.5 3.036 C
1.453 3.036 3.036 1.453 3.036 -0.5 C
S
GR
GS
0.6 GC
10.0 ML
N
324.039 225.575 M
275.956 218.473 L
S
GR
GS
[1 0 0 1 275.95569 215.6747] CT
10.0 ML
1.5 LW
N
0 -5 M
0 5 L
-5 0 M
5 0 L
S
GR
GS
1 setlinecap
1 LJ
1.5 LW
N
379.225 214.72 M
379.225 225.01 L
S
GR
GS
[1 0 0 1 379.22464 225.00967] CT
0 0 1 RC
N
f626426221
f
GR
GS
[1 0 0 1 379.22464 225.00967] CT
0 0 1 RC
10.0 ML
N
3.036 -0.5 M
3.036 -2.453 1.453 -4.036 -0.5 -4.036 C
-2.453 -4.036 -4.036 -2.453 -4.036 -0.5 C
-4.036 1.453 -2.453 3.036 -0.5 3.036 C
1.453 3.036 3.036 1.453 3.036 -0.5 C
S
GR
GS
10.0 ML
1.5 LW
N
231.798 210.708 M
231.798 225.052 L
S
GR
GS
[1 0 0 1 231.79779 225.05231] CT
0 0 1 RC
N
f626426221
f
GR
GS
[1 0 0 1 231.79779 225.05231] CT
0 0 1 RC
10.0 ML
N
3.036 -0.5 M
3.036 -2.453 1.453 -4.036 -0.5 -4.036 C
-2.453 -4.036 -4.036 -2.453 -4.036 -0.5 C
-4.036 1.453 -2.453 3.036 -0.5 3.036 C
1.453 3.036 3.036 1.453 3.036 -0.5 C
S
GR
GS
[1 0 0 1 379.22464 214.71965] CT
10.0 ML
1.5 LW
N
0 -5 M
0 5 L
-5 0 M
5 0 L
S
GR
GS
[1 0 0 1 231.79779 210.70813] CT
10.0 ML
1.5 LW
N
0 -5 M
0 5 L
-5 0 M
5 0 L
S
GR
GS
10.0 ML
1.5 LW
N
324.039 215.909 M
324.039 225.575 L
S
GR
GS
[1 0 0 1 324.03946 225.57512] CT
0 0 1 RC
N
f626426221
f
GR
GS
[1 0 0 1 324.03946 225.57512] CT
0 0 1 RC
10.0 ML
N
3.036 -0.5 M
3.036 -2.453 1.453 -4.036 -0.5 -4.036 C
-2.453 -4.036 -4.036 -2.453 -4.036 -0.5 C
-4.036 1.453 -2.453 3.036 -0.5 3.036 C
1.453 3.036 3.036 1.453 3.036 -0.5 C
S
GR
GS
[1 0 0 1 324.03946 215.90874] CT
10.0 ML
1.5 LW
N
0 -5 M
0 5 L
-5 0 M
5 0 L
S
GR
GS
10.0 ML
1.5 LW
N
272.5 211.742 M
272.5 226.086 L
S
GR
GS
[1 0 0 1 272.50003 226.08612] CT
0 0 1 RC
N
f626426221
f
GR
GS
[1 0 0 1 272.50003 226.08612] CT
0 0 1 RC
10.0 ML
N
3.036 -0.5 M
3.036 -2.453 1.453 -4.036 -0.5 -4.036 C
-2.453 -4.036 -4.036 -2.453 -4.036 -0.5 C
-4.036 1.453 -2.453 3.036 -0.5 3.036 C
1.453 3.036 3.036 1.453 3.036 -0.5 C
S
GR
GS
[1 0 0 1 272.50003 211.74194] CT
10.0 ML
1.5 LW
N
0 -5 M
0 5 L
-5 0 M
5 0 L
S
GR
%%Trailer
%%Pages: 1
%%EOF
