%!PS-Adobe-3.0 EPSF-3.0
%%Creator: (MATLAB, The Mathworks, Inc. Version 9.2.0.556344 \(R2017a\). Operating System: Mac OS X)
%%Title: figures/graph_ID_U2_ex2.eps
%%CreationDate: 2017-10-23T16:04:29
%%Pages: (atend)
%%BoundingBox:   140   163   463   256
%%LanguageLevel: 3
%%EndComments
%%BeginProlog
%%BeginResource: procset (Apache XML Graphics Std ProcSet) 1.2 0
%%Version: 1.2 0
%%Copyright: (Copyright 2001-2003,2010 The Apache Software Foundation. License terms: http://www.apache.org/licenses/LICENSE-2.0)
/bd{bind def}bind def
/ld{load def}bd
/GR/grestore ld
/M/moveto ld
/LJ/setlinejoin ld
/C/curveto ld
/f/fill ld
/LW/setlinewidth ld
/GC/setgray ld
/t/show ld
/N/newpath ld
/CT/concat ld
/cp/closepath ld
/S/stroke ld
/L/lineto ld
/CC/setcmykcolor ld
/A/ashow ld
/GS/gsave ld
/RC/setrgbcolor ld
/RM/rmoveto ld
/ML/setmiterlimit ld
/re {4 2 roll M
1 index 0 rlineto
0 exch rlineto
neg 0 rlineto
cp } bd
/_ctm matrix def
/_tm matrix def
/BT { _ctm currentmatrix pop matrix _tm copy pop 0 0 moveto } bd
/ET { _ctm setmatrix } bd
/iTm { _ctm setmatrix _tm concat } bd
/Tm { _tm astore pop iTm 0 0 moveto } bd
/ux 0.0 def
/uy 0.0 def
/F {
  /Tp exch def
  /Tf exch def
  Tf findfont Tp scalefont setfont
  /cf Tf def  /cs Tp def
} bd
/ULS {currentpoint /uy exch def /ux exch def} bd
/ULE {
  /Tcx currentpoint pop def
  gsave
  newpath
  cf findfont cs scalefont dup
  /FontMatrix get 0 get /Ts exch def /FontInfo get dup
  /UnderlinePosition get Ts mul /To exch def
  /UnderlineThickness get Ts mul /Tt exch def
  ux uy To add moveto  Tcx uy To add lineto
  Tt setlinewidth stroke
  grestore
} bd
/OLE {
  /Tcx currentpoint pop def
  gsave
  newpath
  cf findfont cs scalefont dup
  /FontMatrix get 0 get /Ts exch def /FontInfo get dup
  /UnderlinePosition get Ts mul /To exch def
  /UnderlineThickness get Ts mul /Tt exch def
  ux uy To add cs add moveto Tcx uy To add cs add lineto
  Tt setlinewidth stroke
  grestore
} bd
/SOE {
  /Tcx currentpoint pop def
  gsave
  newpath
  cf findfont cs scalefont dup
  /FontMatrix get 0 get /Ts exch def /FontInfo get dup
  /UnderlinePosition get Ts mul /To exch def
  /UnderlineThickness get Ts mul /Tt exch def
  ux uy To add cs 10 mul 26 idiv add moveto Tcx uy To add cs 10 mul 26 idiv add lineto
  Tt setlinewidth stroke
  grestore
} bd
/QT {
/Y22 exch store
/X22 exch store
/Y21 exch store
/X21 exch store
currentpoint
/Y21 load 2 mul add 3 div exch
/X21 load 2 mul add 3 div exch
/X21 load 2 mul /X22 load add 3 div
/Y21 load 2 mul /Y22 load add 3 div
/X22 load /Y22 load curveto
} bd
/SSPD {
dup length /d exch dict def
{
/v exch def
/k exch def
currentpagedevice k known {
/cpdv currentpagedevice k get def
v cpdv ne {
/upd false def
/nullv v type /nulltype eq def
/nullcpdv cpdv type /nulltype eq def
nullv nullcpdv or
{
/upd true def
} {
/sametype v type cpdv type eq def
sametype {
v type /arraytype eq {
/vlen v length def
/cpdvlen cpdv length def
vlen cpdvlen eq {
0 1 vlen 1 sub {
/i exch def
/obj v i get def
/cpdobj cpdv i get def
obj cpdobj ne {
/upd true def
exit
} if
} for
} {
/upd true def
} ifelse
} {
v type /dicttype eq {
v {
/dv exch def
/dk exch def
/cpddv cpdv dk get def
dv cpddv ne {
/upd true def
exit
} if
} forall
} {
/upd true def
} ifelse
} ifelse
} if
} ifelse
upd true eq {
d k v put
} if
} if
} if
} forall
d length 0 gt {
d setpagedevice
} if
} bd
/RE { % /NewFontName [NewEncodingArray] /FontName RE -
  findfont dup length dict begin
  {
    1 index /FID ne
    {def} {pop pop} ifelse
  } forall
  /Encoding exch def
  /FontName 1 index def
  currentdict definefont pop
  end
} bind def
%%EndResource
%%BeginResource: procset (Apache XML Graphics EPS ProcSet) 1.0 0
%%Version: 1.0 0
%%Copyright: (Copyright 2002-2003 The Apache Software Foundation. License terms: http://www.apache.org/licenses/LICENSE-2.0)
/BeginEPSF { %def
/b4_Inc_state save def         % Save state for cleanup
/dict_count countdictstack def % Count objects on dict stack
/op_count count 1 sub def      % Count objects on operand stack
userdict begin                 % Push userdict on dict stack
/showpage { } def              % Redefine showpage, { } = null proc
0 setgray 0 setlinecap         % Prepare graphics state
1 setlinewidth 0 setlinejoin
10 setmiterlimit [ ] 0 setdash newpath
/languagelevel where           % If level not equal to 1 then
{pop languagelevel             % set strokeadjust and
1 ne                           % overprint to their defaults.
{false setstrokeadjust false setoverprint
} if
} if
} bd
/EndEPSF { %def
count op_count sub {pop} repeat            % Clean up stacks
countdictstack dict_count sub {end} repeat
b4_Inc_state restore
} bd
%%EndResource
%FOPBeginFontDict
%%IncludeResource: font Courier-Bold
%%IncludeResource: font Helvetica
%%IncludeResource: font Courier-BoldOblique
%%IncludeResource: font Courier-Oblique
%%IncludeResource: font Times-Roman
%%IncludeResource: font Helvetica-BoldOblique
%%IncludeResource: font Helvetica-Bold
%%IncludeResource: font Helvetica-Oblique
%%IncludeResource: font Times-BoldItalic
%%IncludeResource: font Courier
%%IncludeResource: font Times-Italic
%%IncludeResource: font Times-Bold
%%IncludeResource: font Symbol
%%IncludeResource: font ZapfDingbats
%FOPEndFontDict
%%BeginResource: encoding WinAnsiEncoding
/WinAnsiEncoding [
/.notdef /.notdef /.notdef /.notdef /.notdef
/.notdef /.notdef /.notdef /.notdef /.notdef
/.notdef /.notdef /.notdef /.notdef /.notdef
/.notdef /.notdef /.notdef /.notdef /.notdef
/.notdef /.notdef /.notdef /.notdef /.notdef
/.notdef /.notdef /.notdef /.notdef /.notdef
/.notdef /.notdef /space /exclam /quotedbl
/numbersign /dollar /percent /ampersand /quotesingle
/parenleft /parenright /asterisk /plus /comma
/hyphen /period /slash /zero /one
/two /three /four /five /six
/seven /eight /nine /colon /semicolon
/less /equal /greater /question /at
/A /B /C /D /E
/F /G /H /I /J
/K /L /M /N /O
/P /Q /R /S /T
/U /V /W /X /Y
/Z /bracketleft /backslash /bracketright /asciicircum
/underscore /quoteleft /a /b /c
/d /e /f /g /h
/i /j /k /l /m
/n /o /p /q /r
/s /t /u /v /w
/x /y /z /braceleft /bar
/braceright /asciitilde /bullet /Euro /bullet
/quotesinglbase /florin /quotedblbase /ellipsis /dagger
/daggerdbl /circumflex /perthousand /Scaron /guilsinglleft
/OE /bullet /Zcaron /bullet /bullet
/quoteleft /quoteright /quotedblleft /quotedblright /bullet
/endash /emdash /asciitilde /trademark /scaron
/guilsinglright /oe /bullet /zcaron /Ydieresis
/space /exclamdown /cent /sterling /currency
/yen /brokenbar /section /dieresis /copyright
/ordfeminine /guillemotleft /logicalnot /sfthyphen /registered
/macron /degree /plusminus /twosuperior /threesuperior
/acute /mu /paragraph /middot /cedilla
/onesuperior /ordmasculine /guillemotright /onequarter /onehalf
/threequarters /questiondown /Agrave /Aacute /Acircumflex
/Atilde /Adieresis /Aring /AE /Ccedilla
/Egrave /Eacute /Ecircumflex /Edieresis /Igrave
/Iacute /Icircumflex /Idieresis /Eth /Ntilde
/Ograve /Oacute /Ocircumflex /Otilde /Odieresis
/multiply /Oslash /Ugrave /Uacute /Ucircumflex
/Udieresis /Yacute /Thorn /germandbls /agrave
/aacute /acircumflex /atilde /adieresis /aring
/ae /ccedilla /egrave /eacute /ecircumflex
/edieresis /igrave /iacute /icircumflex /idieresis
/eth /ntilde /ograve /oacute /ocircumflex
/otilde /odieresis /divide /oslash /ugrave
/uacute /ucircumflex /udieresis /yacute /thorn
/ydieresis
] def
%%EndResource
%FOPBeginFontReencode
/Courier-Bold findfont
dup length dict begin
  {1 index /FID ne {def} {pop pop} ifelse} forall
  /Encoding WinAnsiEncoding def
  currentdict
end
/Courier-Bold exch definefont pop
/Helvetica findfont
dup length dict begin
  {1 index /FID ne {def} {pop pop} ifelse} forall
  /Encoding WinAnsiEncoding def
  currentdict
end
/Helvetica exch definefont pop
/Courier-BoldOblique findfont
dup length dict begin
  {1 index /FID ne {def} {pop pop} ifelse} forall
  /Encoding WinAnsiEncoding def
  currentdict
end
/Courier-BoldOblique exch definefont pop
/Courier-Oblique findfont
dup length dict begin
  {1 index /FID ne {def} {pop pop} ifelse} forall
  /Encoding WinAnsiEncoding def
  currentdict
end
/Courier-Oblique exch definefont pop
/Times-Roman findfont
dup length dict begin
  {1 index /FID ne {def} {pop pop} ifelse} forall
  /Encoding WinAnsiEncoding def
  currentdict
end
/Times-Roman exch definefont pop
/Helvetica-BoldOblique findfont
dup length dict begin
  {1 index /FID ne {def} {pop pop} ifelse} forall
  /Encoding WinAnsiEncoding def
  currentdict
end
/Helvetica-BoldOblique exch definefont pop
/Helvetica-Bold findfont
dup length dict begin
  {1 index /FID ne {def} {pop pop} ifelse} forall
  /Encoding WinAnsiEncoding def
  currentdict
end
/Helvetica-Bold exch definefont pop
/Helvetica-Oblique findfont
dup length dict begin
  {1 index /FID ne {def} {pop pop} ifelse} forall
  /Encoding WinAnsiEncoding def
  currentdict
end
/Helvetica-Oblique exch definefont pop
/Times-BoldItalic findfont
dup length dict begin
  {1 index /FID ne {def} {pop pop} ifelse} forall
  /Encoding WinAnsiEncoding def
  currentdict
end
/Times-BoldItalic exch definefont pop
/Courier findfont
dup length dict begin
  {1 index /FID ne {def} {pop pop} ifelse} forall
  /Encoding WinAnsiEncoding def
  currentdict
end
/Courier exch definefont pop
/Times-Italic findfont
dup length dict begin
  {1 index /FID ne {def} {pop pop} ifelse} forall
  /Encoding WinAnsiEncoding def
  currentdict
end
/Times-Italic exch definefont pop
/Times-Bold findfont
dup length dict begin
  {1 index /FID ne {def} {pop pop} ifelse} forall
  /Encoding WinAnsiEncoding def
  currentdict
end
/Times-Bold exch definefont pop
%FOPEndFontReencode
%%EndProlog
%%Page: 1 1
%%PageBoundingBox: 0 0 560 420
%%BeginPageSetup
[1 0 0 -1 0 420] CT
%%EndPageSetup
GS
1 GC
N
0 0 560 420 re
f
GR
GS
1 GC
N
0 0 560 420 re
f
GR
GS
1 0 0 RC
1 setlinecap
1 LJ
1.5 LW
N
274.678 180.239 M
274.678 168.944 L
S
GR
GS
[1 0 0 1 274.67825 180.23886] CT
1 0 0 RC
10.0 ML
1.5 LW
N
4.5 -0.5 M
4.5 -3.261 2.261 -5.5 -0.5 -5.5 C
-3.261 -5.5 -5.5 -3.261 -5.5 -0.5 C
-5.5 2.261 -3.261 4.5 -0.5 4.5 C
2.261 4.5 4.5 2.261 4.5 -0.5 C
S
GR
GS
0.6 GC
1 LJ
N
296.285 180.203 M
274.678 168.944 L
S
GR
GS
[1 0 0 1 274.67825 168.94356] CT
0 0 1 RC
N
3.036 -0.5 M
3.036 -2.453 1.453 -4.036 -0.5 -4.036 C
-2.453 -4.036 -4.036 -2.453 -4.036 -0.5 C
-4.036 1.453 -2.453 3.036 -0.5 3.036 C
1.453 3.036 3.036 1.453 3.036 -0.5 C
f
GR
GS
[1 0 0 1 274.67825 168.94356] CT
0 0 1 RC
10.0 ML
N
3.036 -0.5 M
3.036 -2.453 1.453 -4.036 -0.5 -4.036 C
-2.453 -4.036 -4.036 -2.453 -4.036 -0.5 C
-4.036 1.453 -2.453 3.036 -0.5 3.036 C
1.453 3.036 3.036 1.453 3.036 -0.5 C
S
GR
GS
0.6 GC
10.0 ML
N
274.678 168.944 M
245.687 189.926 L
S
GR
GS
0.6 GC
10.0 ML
N
274.678 168.944 M
296.285 180.203 L
S
GR
GS
0.6 GC
10.0 ML
N
245.687 189.926 M
274.678 168.944 L
S
GR
GS
[1 0 0 1 243.50052 181.59241] CT
1 0 0 RC
10.0 ML
1.5 LW
N
4.5 -0.5 M
4.5 -3.261 2.261 -5.5 -0.5 -5.5 C
-3.261 -5.5 -5.5 -3.261 -5.5 -0.5 C
-5.5 2.261 -3.261 4.5 -0.5 4.5 C
2.261 4.5 4.5 2.261 4.5 -0.5 C
S
GR
GS
1 0 0 RC
1 setlinecap
1 LJ
1.5 LW
N
243.501 181.592 M
243.501 170.297 L
S
GR
GS
0.6 GC
1 LJ
N
296.285 180.203 M
243.501 170.297 L
S
GR
GS
0.6 GC
1 LJ
N
243.501 170.297 M
296.285 180.203 L
S
GR
GS
0.6 GC
1 LJ
N
245.687 189.926 M
243.501 170.297 L
S
GR
GS
[1 0 0 1 243.50052 170.2971] CT
0 0 1 RC
N
/f626426221{3.036 -0.5 M
3.036 -2.453 1.453 -4.036 -0.5 -4.036 C
-2.453 -4.036 -4.036 -2.453 -4.036 -0.5 C
-4.036 1.453 -2.453 3.036 -0.5 3.036 C
1.453 3.036 3.036 1.453 3.036 -0.5 C}def
f626426221
f
GR
GS
[1 0 0 1 243.50052 170.2971] CT
0 0 1 RC
10.0 ML
N
3.036 -0.5 M
3.036 -2.453 1.453 -4.036 -0.5 -4.036 C
-2.453 -4.036 -4.036 -2.453 -4.036 -0.5 C
-4.036 1.453 -2.453 3.036 -0.5 3.036 C
1.453 3.036 3.036 1.453 3.036 -0.5 C
S
GR
GS
0.6 GC
10.0 ML
N
243.501 170.297 M
245.687 189.926 L
S
GR
GS
[1 0 0 1 208.60638 184.74995] CT
1 0 0 RC
10.0 ML
1.5 LW
N
4.5 -0.5 M
4.5 -3.261 2.261 -5.5 -0.5 -5.5 C
-3.261 -5.5 -5.5 -3.261 -5.5 -0.5 C
-5.5 2.261 -3.261 4.5 -0.5 4.5 C
2.261 4.5 4.5 2.261 4.5 -0.5 C
S
GR
GS
1 0 0 RC
1 setlinecap
1 LJ
1.5 LW
N
208.606 184.75 M
208.606 174.45 L
S
GR
GS
0.6 GC
1 LJ
N
208.606 174.45 M
260.252 180.733 L
S
GR
GS
0.6 GC
1 LJ
N
260.252 180.733 M
208.606 174.45 L
S
GR
GS
0.6 GC
1 LJ
N
245.687 189.926 M
208.606 174.45 L
S
GR
GS
[1 0 0 1 208.60638 174.45032] CT
0 0 1 RC
N
f626426221
f
GR
GS
[1 0 0 1 208.60638 174.45032] CT
0 0 1 RC
10.0 ML
N
3.036 -0.5 M
3.036 -2.453 1.453 -4.036 -0.5 -4.036 C
-2.453 -4.036 -4.036 -2.453 -4.036 -0.5 C
-4.036 1.453 -2.453 3.036 -0.5 3.036 C
1.453 3.036 3.036 1.453 3.036 -0.5 C
S
GR
GS
0.6 GC
10.0 ML
N
208.606 174.45 M
245.687 189.926 L
S
GR
GS
1 0 0 RC
1 setlinecap
1 LJ
1.5 LW
N
296.285 212.715 M
296.285 180.203 L
S
GR
GS
[1 0 0 1 296.28549 212.71536] CT
1 0 0 RC
10.0 ML
1.5 LW
N
4.5 -0.5 M
4.5 -3.261 2.261 -5.5 -0.5 -5.5 C
-3.261 -5.5 -5.5 -3.261 -5.5 -0.5 C
-5.5 2.261 -3.261 4.5 -0.5 4.5 C
2.261 4.5 4.5 2.261 4.5 -0.5 C
S
GR
GS
1 0 0 RC
10.0 ML
1.5 LW
N
171.29 185.383 M
171.29 178.922 L
S
GR
GS
[1 0 0 1 171.29005 185.38313] CT
1 0 0 RC
10.0 ML
1.5 LW
N
4.5 -0.5 M
4.5 -3.261 2.261 -5.5 -0.5 -5.5 C
-3.261 -5.5 -5.5 -3.261 -5.5 -0.5 C
-5.5 2.261 -3.261 4.5 -0.5 4.5 C
2.261 4.5 4.5 2.261 4.5 -0.5 C
S
GR
GS
[1 0 0 1 260.25214 206.54816] CT
1 0 0 RC
10.0 ML
1.5 LW
N
4.5 -0.5 M
4.5 -3.261 2.261 -5.5 -0.5 -5.5 C
-3.261 -5.5 -5.5 -3.261 -5.5 -0.5 C
-5.5 2.261 -3.261 4.5 -0.5 4.5 C
2.261 4.5 4.5 2.261 4.5 -0.5 C
S
GR
GS
1 0 0 RC
10.0 ML
1.5 LW
N
260.252 206.548 M
260.252 180.733 L
S
GR
GS
0.6 GC
1 LJ
N
171.29 178.922 M
245.687 189.926 L
S
GR
GS
0.6 GC
1 LJ
N
245.687 189.926 M
171.29 178.922 L
S
GR
GS
[1 0 0 1 171.29005 178.92183] CT
0 0 1 RC
N
f626426221
f
GR
GS
[1 0 0 1 171.29005 178.92183] CT
0 0 1 RC
10.0 ML
N
3.036 -0.5 M
3.036 -2.453 1.453 -4.036 -0.5 -4.036 C
-2.453 -4.036 -4.036 -2.453 -4.036 -0.5 C
-4.036 1.453 -2.453 3.036 -0.5 3.036 C
1.453 3.036 3.036 1.453 3.036 -0.5 C
S
GR
GS
0.6 GC
10.0 ML
N
296.285 180.203 M
245.687 189.926 L
S
GR
GS
0.6 GC
10.0 ML
N
302.522 190.086 M
296.285 180.203 L
S
GR
GS
[1 0 0 1 296.28549 180.20332] CT
0 0 1 RC
N
f626426221
f
GR
GS
[1 0 0 1 296.28549 180.20332] CT
0 0 1 RC
10.0 ML
N
3.036 -0.5 M
3.036 -2.453 1.453 -4.036 -0.5 -4.036 C
-2.453 -4.036 -4.036 -2.453 -4.036 -0.5 C
-4.036 1.453 -2.453 3.036 -0.5 3.036 C
1.453 3.036 3.036 1.453 3.036 -0.5 C
S
GR
GS
0.6 GC
10.0 ML
N
296.285 180.203 M
267.769 186.26 L
S
GR
GS
0.6 GC
10.0 ML
N
267.769 186.26 M
296.285 180.203 L
S
GR
GS
0.6 GC
10.0 ML
N
245.687 189.926 M
296.285 180.203 L
S
GR
GS
0.6 GC
10.0 ML
N
296.285 180.203 M
260.252 180.733 L
S
GR
GS
0.6 GC
10.0 ML
N
314.36 195.671 M
296.285 180.203 L
S
GR
GS
0.6 GC
10.0 ML
N
296.285 180.203 M
367.126 191.502 L
S
GR
GS
0.6 GC
10.0 ML
N
329.435 185.504 M
296.285 180.203 L
S
GR
GS
0.6 GC
10.0 ML
N
296.285 180.203 M
314.36 195.671 L
S
GR
GS
0.6 GC
10.0 ML
N
367.126 191.502 M
296.285 180.203 L
S
GR
GS
0.6 GC
10.0 ML
N
296.285 180.203 M
329.435 185.504 L
S
GR
GS
0.6 GC
10.0 ML
N
260.252 180.733 M
296.285 180.203 L
S
GR
GS
0.6 GC
10.0 ML
N
296.285 180.203 M
302.522 190.086 L
S
GR
GS
0.6 GC
10.0 ML
N
260.252 180.733 M
302.522 190.086 L
S
GR
GS
0.6 GC
10.0 ML
N
260.252 180.733 M
245.687 189.926 L
S
GR
GS
0.6 GC
10.0 ML
N
302.522 190.086 M
260.252 180.733 L
S
GR
GS
0.6 GC
10.0 ML
N
267.769 186.26 M
260.252 180.733 L
S
GR
GS
1 0 0 RC
1 setlinecap
1 LJ
1.5 LW
N
302.522 217.771 M
302.522 190.086 L
S
GR
GS
0.6 GC
1 LJ
N
260.252 180.733 M
314.36 195.671 L
S
GR
GS
0.6 GC
1 LJ
N
314.36 195.671 M
260.252 180.733 L
S
GR
GS
0.6 GC
1 LJ
N
260.252 180.733 M
267.769 186.26 L
S
GR
GS
0.6 GC
1 LJ
N
245.687 189.926 M
260.252 180.733 L
S
GR
GS
[1 0 0 1 260.25214 180.73268] CT
0 0 1 RC
N
f626426221
f
GR
GS
[1 0 0 1 260.25214 180.73268] CT
0 0 1 RC
10.0 ML
N
3.036 -0.5 M
3.036 -2.453 1.453 -4.036 -0.5 -4.036 C
-2.453 -4.036 -4.036 -2.453 -4.036 -0.5 C
-4.036 1.453 -2.453 3.036 -0.5 3.036 C
1.453 3.036 3.036 1.453 3.036 -0.5 C
S
GR
GS
[1 0 0 1 329.43472 203.58571] CT
1 0 0 RC
10.0 ML
1.5 LW
N
4.5 -0.5 M
4.5 -3.261 2.261 -5.5 -0.5 -5.5 C
-3.261 -5.5 -5.5 -3.261 -5.5 -0.5 C
-5.5 2.261 -3.261 4.5 -0.5 4.5 C
2.261 4.5 4.5 2.261 4.5 -0.5 C
S
GR
GS
1 0 0 RC
1 setlinecap
1 LJ
1.5 LW
N
329.435 203.586 M
329.435 185.504 L
S
GR
GS
1 0 0 RC
1 setlinecap
1 LJ
1.5 LW
N
267.769 207.159 M
267.769 186.26 L
S
GR
GS
[1 0 0 1 267.76944 207.15915] CT
1 0 0 RC
10.0 ML
1.5 LW
N
4.5 -0.5 M
4.5 -3.261 2.261 -5.5 -0.5 -5.5 C
-3.261 -5.5 -5.5 -3.261 -5.5 -0.5 C
-5.5 2.261 -3.261 4.5 -0.5 4.5 C
2.261 4.5 4.5 2.261 4.5 -0.5 C
S
GR
GS
[1 0 0 1 385.0271 198.85246] CT
1 0 0 RC
10.0 ML
1.5 LW
N
4.5 -0.5 M
4.5 -3.261 2.261 -5.5 -0.5 -5.5 C
-3.261 -5.5 -5.5 -3.261 -5.5 -0.5 C
-5.5 2.261 -3.261 4.5 -0.5 4.5 C
2.261 4.5 4.5 2.261 4.5 -0.5 C
S
GR
GS
1 0 0 RC
10.0 ML
1.5 LW
N
385.027 198.852 M
385.027 186.301 L
S
GR
GS
0.6 GC
1 LJ
N
329.435 185.504 M
245.687 189.926 L
S
GR
GS
1 0 0 RC
1 setlinecap
1 LJ
1.5 LW
N
367.126 212.865 M
367.126 191.502 L
S
GR
GS
0.6 GC
1 LJ
N
329.435 185.504 M
381.365 205.135 L
S
GR
GS
0.6 GC
1 LJ
N
245.687 189.926 M
329.435 185.504 L
S
GR
GS
[1 0 0 1 329.43472 185.50427] CT
0 0 1 RC
N
f626426221
f
GR
GS
[1 0 0 1 329.43472 185.50427] CT
0 0 1 RC
10.0 ML
N
3.036 -0.5 M
3.036 -2.453 1.453 -4.036 -0.5 -4.036 C
-2.453 -4.036 -4.036 -2.453 -4.036 -0.5 C
-4.036 1.453 -2.453 3.036 -0.5 3.036 C
1.453 3.036 3.036 1.453 3.036 -0.5 C
S
GR
GS
0.6 GC
10.0 ML
N
381.365 205.135 M
329.435 185.504 L
S
GR
GS
[1 0 0 1 245.68686 233.38228] CT
1 0 0 RC
10.0 ML
1.5 LW
N
4.5 -0.5 M
4.5 -3.261 2.261 -5.5 -0.5 -5.5 C
-3.261 -5.5 -5.5 -3.261 -5.5 -0.5 C
-5.5 2.261 -3.261 4.5 -0.5 4.5 C
2.261 4.5 4.5 2.261 4.5 -0.5 C
S
GR
GS
1 0 0 RC
10.0 ML
1.5 LW
N
245.687 233.382 M
245.687 189.926 L
S
GR
GS
0.6 GC
10.0 ML
N
267.769 186.26 M
245.687 189.926 L
S
GR
GS
0.6 GC
10.0 ML
N
267.769 186.26 M
314.36 195.671 L
S
GR
GS
0.6 GC
10.0 ML
N
314.36 195.671 M
267.769 186.26 L
S
GR
GS
[1 0 0 1 267.76944 186.26031] CT
0 0 1 RC
N
f626426221
f
GR
GS
[1 0 0 1 267.76944 186.26031] CT
0 0 1 RC
10.0 ML
N
3.036 -0.5 M
3.036 -2.453 1.453 -4.036 -0.5 -4.036 C
-2.453 -4.036 -4.036 -2.453 -4.036 -0.5 C
-4.036 1.453 -2.453 3.036 -0.5 3.036 C
1.453 3.036 3.036 1.453 3.036 -0.5 C
S
GR
GS
0.6 GC
10.0 ML
N
245.687 189.926 M
267.769 186.26 L
S
GR
GS
0.6 GC
10.0 ML
N
381.365 205.135 M
385.027 186.301 L
S
GR
GS
0.6 GC
10.0 ML
N
385.027 186.301 M
381.365 205.135 L
S
GR
GS
0.6 GC
10.0 ML
N
314.36 195.671 M
385.027 186.301 L
S
GR
GS
0.6 GC
10.0 ML
N
385.027 186.301 M
314.36 195.671 L
S
GR
GS
[1 0 0 1 385.0271 186.30113] CT
0 0 1 RC
N
f626426221
f
GR
GS
[1 0 0 1 385.0271 186.30113] CT
0 0 1 RC
10.0 ML
N
3.036 -0.5 M
3.036 -2.453 1.453 -4.036 -0.5 -4.036 C
-2.453 -4.036 -4.036 -2.453 -4.036 -0.5 C
-4.036 1.453 -2.453 3.036 -0.5 3.036 C
1.453 3.036 3.036 1.453 3.036 -0.5 C
S
GR
GS
[1 0 0 1 302.52234 217.77135] CT
1 0 0 RC
10.0 ML
1.5 LW
N
4.5 -0.5 M
4.5 -3.261 2.261 -5.5 -0.5 -5.5 C
-3.261 -5.5 -5.5 -3.261 -5.5 -0.5 C
-5.5 2.261 -3.261 4.5 -0.5 4.5 C
2.261 4.5 4.5 2.261 4.5 -0.5 C
S
GR
GS
[1 0 0 1 367.12628 212.8653] CT
1 0 0 RC
10.0 ML
1.5 LW
N
4.5 -0.5 M
4.5 -3.261 2.261 -5.5 -0.5 -5.5 C
-3.261 -5.5 -5.5 -3.261 -5.5 -0.5 C
-5.5 2.261 -3.261 4.5 -0.5 4.5 C
2.261 4.5 4.5 2.261 4.5 -0.5 C
S
GR
GS
[1 0 0 1 245.68686 189.92552] CT
0 0 1 RC
N
f626426221
f
GR
GS
[1 0 0 1 245.68686 189.92552] CT
0 0 1 RC
10.0 ML
N
3.036 -0.5 M
3.036 -2.453 1.453 -4.036 -0.5 -4.036 C
-2.453 -4.036 -4.036 -2.453 -4.036 -0.5 C
-4.036 1.453 -2.453 3.036 -0.5 3.036 C
1.453 3.036 3.036 1.453 3.036 -0.5 C
S
GR
GS
1 0 0 RC
1 setlinecap
1 LJ
1.5 LW
N
314.36 234.446 M
314.36 195.671 L
S
GR
GS
0.6 GC
1 LJ
N
337.772 198.065 M
245.687 189.926 L
S
GR
GS
0.6 GC
1 LJ
N
190.812 196.614 M
245.687 189.926 L
S
GR
GS
0.6 GC
1 LJ
N
245.687 189.926 M
166.306 190.852 L
S
GR
GS
0.6 GC
1 LJ
N
245.687 189.926 M
337.772 198.065 L
S
GR
GS
0.6 GC
1 LJ
N
302.522 190.086 M
245.687 189.926 L
S
GR
GS
0.6 GC
1 LJ
N
245.687 189.926 M
302.522 190.086 L
S
GR
GS
0.6 GC
1 LJ
N
314.36 195.671 M
245.687 189.926 L
S
GR
GS
0.6 GC
1 LJ
N
245.687 189.926 M
314.36 195.671 L
S
GR
GS
0.6 GC
1 LJ
N
245.687 189.926 M
190.812 196.614 L
S
GR
GS
1 0 0 RC
1 setlinecap
1 LJ
1.5 LW
N
190.812 205.901 M
190.812 196.614 L
S
GR
GS
0.6 GC
1 LJ
N
245.687 189.926 M
165.386 200.98 L
S
GR
GS
0.6 GC
1 LJ
N
245.687 189.926 M
309.36 212.55 L
S
GR
GS
0.6 GC
1 LJ
N
165.386 200.98 M
245.687 189.926 L
S
GR
GS
0.6 GC
1 LJ
N
166.306 190.852 M
245.687 189.926 L
S
GR
GS
0.6 GC
1 LJ
N
309.36 212.55 M
245.687 189.926 L
S
GR
GS
0.6 GC
1 LJ
N
189.288 206.076 M
245.687 189.926 L
S
GR
GS
0.6 GC
1 LJ
N
245.687 189.926 M
189.288 206.076 L
S
GR
GS
1 0 0 RC
1 setlinecap
1 LJ
1.5 LW
N
166.306 200.139 M
166.306 190.852 L
S
GR
GS
[1 0 0 1 166.30582 200.13884] CT
1 0 0 RC
10.0 ML
1.5 LW
N
4.5 -0.5 M
4.5 -3.261 2.261 -5.5 -0.5 -5.5 C
-3.261 -5.5 -5.5 -3.261 -5.5 -0.5 C
-5.5 2.261 -3.261 4.5 -0.5 4.5 C
2.261 4.5 4.5 2.261 4.5 -0.5 C
S
GR
GS
0.6 GC
1 LJ
N
302.522 190.086 M
314.36 195.671 L
S
GR
GS
[1 0 0 1 302.52234 190.08638] CT
0 0 1 RC
N
f626426221
f
GR
GS
[1 0 0 1 302.52234 190.08638] CT
0 0 1 RC
10.0 ML
N
3.036 -0.5 M
3.036 -2.453 1.453 -4.036 -0.5 -4.036 C
-2.453 -4.036 -4.036 -2.453 -4.036 -0.5 C
-4.036 1.453 -2.453 3.036 -0.5 3.036 C
1.453 3.036 3.036 1.453 3.036 -0.5 C
S
GR
GS
0.6 GC
10.0 ML
N
381.365 205.135 M
302.522 190.086 L
S
GR
GS
0.6 GC
10.0 ML
N
314.36 195.671 M
302.522 190.086 L
S
GR
GS
0.6 GC
10.0 ML
N
302.522 190.086 M
381.365 205.135 L
S
GR
GS
0.6 GC
10.0 ML
N
165.386 200.98 M
166.306 190.852 L
S
GR
GS
0.6 GC
10.0 ML
N
166.306 190.852 M
165.386 200.98 L
S
GR
GS
0.6 GC
10.0 ML
N
190.812 196.614 M
166.306 190.852 L
S
GR
GS
[1 0 0 1 166.30582 190.8521] CT
0 0 1 RC
N
f626426221
f
GR
GS
[1 0 0 1 166.30582 190.8521] CT
0 0 1 RC
10.0 ML
N
3.036 -0.5 M
3.036 -2.453 1.453 -4.036 -0.5 -4.036 C
-2.453 -4.036 -4.036 -2.453 -4.036 -0.5 C
-4.036 1.453 -2.453 3.036 -0.5 3.036 C
1.453 3.036 3.036 1.453 3.036 -0.5 C
S
GR
GS
0.6 GC
10.0 ML
N
166.306 190.852 M
190.812 196.614 L
S
GR
GS
0.6 GC
10.0 ML
N
395.757 206.4 M
367.126 191.502 L
S
GR
GS
0.6 GC
10.0 ML
N
367.126 191.502 M
395.757 206.4 L
S
GR
GS
0.6 GC
10.0 ML
N
367.126 191.502 M
381.365 205.135 L
S
GR
GS
0.6 GC
10.0 ML
N
337.772 198.065 M
367.126 191.502 L
S
GR
GS
[1 0 0 1 367.12628 191.50211] CT
0 0 1 RC
N
f626426221
f
GR
GS
[1 0 0 1 367.12628 191.50211] CT
0 0 1 RC
10.0 ML
N
3.036 -0.5 M
3.036 -2.453 1.453 -4.036 -0.5 -4.036 C
-2.453 -4.036 -4.036 -2.453 -4.036 -0.5 C
-4.036 1.453 -2.453 3.036 -0.5 3.036 C
1.453 3.036 3.036 1.453 3.036 -0.5 C
S
GR
GS
0.6 GC
10.0 ML
N
367.126 191.502 M
337.772 198.065 L
S
GR
GS
0.6 GC
10.0 ML
N
381.365 205.135 M
367.126 191.502 L
S
GR
GS
1 0 0 RC
1 setlinecap
1 LJ
1.5 LW
N
430.309 205.274 M
430.309 192.878 L
S
GR
GS
[1 0 0 1 430.30869 205.2739] CT
1 0 0 RC
10.0 ML
1.5 LW
N
4.5 -0.5 M
4.5 -3.261 2.261 -5.5 -0.5 -5.5 C
-3.261 -5.5 -5.5 -3.261 -5.5 -0.5 C
-5.5 2.261 -3.261 4.5 -0.5 4.5 C
2.261 4.5 4.5 2.261 4.5 -0.5 C
S
GR
GS
[1 0 0 1 314.35968 234.44559] CT
1 0 0 RC
10.0 ML
1.5 LW
N
4.5 -0.5 M
4.5 -3.261 2.261 -5.5 -0.5 -5.5 C
-3.261 -5.5 -5.5 -3.261 -5.5 -0.5 C
-5.5 2.261 -3.261 4.5 -0.5 4.5 C
2.261 4.5 4.5 2.261 4.5 -0.5 C
S
GR
GS
0.6 GC
1 LJ
N
395.757 206.4 M
430.309 192.878 L
S
GR
GS
[1 0 0 1 430.30869 192.87794] CT
0 0 1 RC
N
f626426221
f
GR
GS
[1 0 0 1 430.30869 192.87794] CT
0 0 1 RC
10.0 ML
N
3.036 -0.5 M
3.036 -2.453 1.453 -4.036 -0.5 -4.036 C
-2.453 -4.036 -4.036 -2.453 -4.036 -0.5 C
-4.036 1.453 -2.453 3.036 -0.5 3.036 C
1.453 3.036 3.036 1.453 3.036 -0.5 C
S
GR
GS
0.6 GC
10.0 ML
N
430.309 192.878 M
381.365 205.135 L
S
GR
GS
0.6 GC
10.0 ML
N
381.365 205.135 M
430.309 192.878 L
S
GR
GS
0.6 GC
10.0 ML
N
430.309 192.878 M
395.757 206.4 L
S
GR
GS
1 0 0 RC
1 setlinecap
1 LJ
1.5 LW
N
337.772 225.863 M
337.772 198.065 L
S
GR
GS
[1 0 0 1 337.77216 225.86334] CT
1 0 0 RC
10.0 ML
1.5 LW
N
4.5 -0.5 M
4.5 -3.261 2.261 -5.5 -0.5 -5.5 C
-3.261 -5.5 -5.5 -3.261 -5.5 -0.5 C
-5.5 2.261 -3.261 4.5 -0.5 4.5 C
2.261 4.5 4.5 2.261 4.5 -0.5 C
S
GR
GS
0.6 GC
1 LJ
N
395.757 206.4 M
314.36 195.671 L
S
GR
GS
0.6 GC
1 LJ
N
337.772 198.065 M
314.36 195.671 L
S
GR
GS
0.6 GC
1 LJ
N
314.36 195.671 M
395.757 206.4 L
S
GR
GS
0.6 GC
1 LJ
N
314.36 195.671 M
329.327 217.544 L
S
GR
GS
0.6 GC
1 LJ
N
314.36 195.671 M
337.772 198.065 L
S
GR
GS
0.6 GC
1 LJ
N
314.36 195.671 M
332.038 208.439 L
S
GR
GS
0.6 GC
1 LJ
N
329.327 217.544 M
314.36 195.671 L
S
GR
GS
[1 0 0 1 314.35968 195.67067] CT
0 0 1 RC
N
f626426221
f
GR
GS
[1 0 0 1 314.35968 195.67067] CT
0 0 1 RC
10.0 ML
N
3.036 -0.5 M
3.036 -2.453 1.453 -4.036 -0.5 -4.036 C
-2.453 -4.036 -4.036 -2.453 -4.036 -0.5 C
-4.036 1.453 -2.453 3.036 -0.5 3.036 C
1.453 3.036 3.036 1.453 3.036 -0.5 C
S
GR
GS
0.6 GC
10.0 ML
N
332.038 208.439 M
314.36 195.671 L
S
GR
GS
[1 0 0 1 190.81155 205.90086] CT
1 0 0 RC
10.0 ML
1.5 LW
N
4.5 -0.5 M
4.5 -3.261 2.261 -5.5 -0.5 -5.5 C
-3.261 -5.5 -5.5 -3.261 -5.5 -0.5 C
-5.5 2.261 -3.261 4.5 -0.5 4.5 C
2.261 4.5 4.5 2.261 4.5 -0.5 C
S
GR
GS
[1 0 0 1 190.81155 196.61412] CT
0 0 1 RC
N
f626426221
f
GR
GS
[1 0 0 1 190.81155 196.61412] CT
0 0 1 RC
10.0 ML
N
3.036 -0.5 M
3.036 -2.453 1.453 -4.036 -0.5 -4.036 C
-2.453 -4.036 -4.036 -2.453 -4.036 -0.5 C
-4.036 1.453 -2.453 3.036 -0.5 3.036 C
1.453 3.036 3.036 1.453 3.036 -0.5 C
S
GR
GS
0.6 GC
10.0 ML
N
190.812 196.614 M
189.288 206.076 L
S
GR
GS
0.6 GC
10.0 ML
N
189.288 206.076 M
190.812 196.614 L
S
GR
GS
1 0 0 RC
1 setlinecap
1 LJ
1.5 LW
N
445.087 210.998 M
445.087 198.602 L
S
GR
GS
[1 0 0 1 445.08652 210.99765] CT
1 0 0 RC
10.0 ML
1.5 LW
N
4.5 -0.5 M
4.5 -3.261 2.261 -5.5 -0.5 -5.5 C
-3.261 -5.5 -5.5 -3.261 -5.5 -0.5 C
-5.5 2.261 -3.261 4.5 -0.5 4.5 C
2.261 4.5 4.5 2.261 4.5 -0.5 C
S
GR
GS
0.6 GC
1 LJ
N
395.757 206.4 M
337.772 198.065 L
S
GR
GS
0.6 GC
1 LJ
N
381.365 205.135 M
337.772 198.065 L
S
GR
GS
0.6 GC
1 LJ
N
337.772 198.065 M
381.365 205.135 L
S
GR
GS
0.6 GC
1 LJ
N
337.772 198.065 M
395.757 206.4 L
S
GR
GS
[1 0 0 1 337.77216 198.06454] CT
0 0 1 RC
N
f626426221
f
GR
GS
[1 0 0 1 337.77216 198.06454] CT
0 0 1 RC
10.0 ML
N
3.036 -0.5 M
3.036 -2.453 1.453 -4.036 -0.5 -4.036 C
-2.453 -4.036 -4.036 -2.453 -4.036 -0.5 C
-4.036 1.453 -2.453 3.036 -0.5 3.036 C
1.453 3.036 3.036 1.453 3.036 -0.5 C
S
GR
GS
0.6 GC
10.0 ML
N
445.087 198.602 M
381.365 205.135 L
S
GR
GS
[1 0 0 1 445.08652 198.6017] CT
0 0 1 RC
N
f626426221
f
GR
GS
[1 0 0 1 445.08652 198.6017] CT
0 0 1 RC
10.0 ML
N
3.036 -0.5 M
3.036 -2.453 1.453 -4.036 -0.5 -4.036 C
-2.453 -4.036 -4.036 -2.453 -4.036 -0.5 C
-4.036 1.453 -2.453 3.036 -0.5 3.036 C
1.453 3.036 3.036 1.453 3.036 -0.5 C
S
GR
GS
0.6 GC
10.0 ML
N
395.757 206.4 M
445.087 198.602 L
S
GR
GS
0.6 GC
10.0 ML
N
381.365 205.135 M
445.087 198.602 L
S
GR
GS
0.6 GC
10.0 ML
N
445.087 198.602 M
395.757 206.4 L
S
GR
GS
1 0 0 RC
1 setlinecap
1 LJ
1.5 LW
N
165.386 210.696 M
165.386 200.98 L
S
GR
GS
[1 0 0 1 165.38637 210.69612] CT
1 0 0 RC
10.0 ML
1.5 LW
N
4.5 -0.5 M
4.5 -3.261 2.261 -5.5 -0.5 -5.5 C
-3.261 -5.5 -5.5 -3.261 -5.5 -0.5 C
-5.5 2.261 -3.261 4.5 -0.5 4.5 C
2.261 4.5 4.5 2.261 4.5 -0.5 C
S
GR
GS
1 0 0 RC
1 LJ
1.5 LW
N
381.365 250.776 M
381.365 205.135 L
S
GR
GS
[1 0 0 1 381.36526 250.77635] CT
1 0 0 RC
10.0 ML
1.5 LW
N
4.5 -0.5 M
4.5 -3.261 2.261 -5.5 -0.5 -5.5 C
-3.261 -5.5 -5.5 -3.261 -5.5 -0.5 C
-5.5 2.261 -3.261 4.5 -0.5 4.5 C
2.261 4.5 4.5 2.261 4.5 -0.5 C
S
GR
GS
0.6 GC
10.0 ML
N
165.386 200.98 M
189.288 206.076 L
S
GR
GS
0.6 GC
10.0 ML
N
189.288 206.076 M
165.386 200.98 L
S
GR
GS
0.6 GC
10.0 ML
N
146.567 213.394 M
165.386 200.98 L
S
GR
GS
0.6 GC
10.0 ML
N
165.386 200.98 M
146.567 213.394 L
S
GR
GS
[1 0 0 1 165.38637 200.97978] CT
0 0 1 RC
N
f626426221
f
GR
GS
[1 0 0 1 165.38637 200.97978] CT
0 0 1 RC
10.0 ML
N
3.036 -0.5 M
3.036 -2.453 1.453 -4.036 -0.5 -4.036 C
-2.453 -4.036 -4.036 -2.453 -4.036 -0.5 C
-4.036 1.453 -2.453 3.036 -0.5 3.036 C
1.453 3.036 3.036 1.453 3.036 -0.5 C
S
GR
GS
1 0 0 RC
1 setlinecap
1 LJ
1.5 LW
N
395.757 244.13 M
395.757 206.4 L
S
GR
GS
[1 0 0 1 395.75684 244.13028] CT
1 0 0 RC
10.0 ML
1.5 LW
N
4.5 -0.5 M
4.5 -3.261 2.261 -5.5 -0.5 -5.5 C
-3.261 -5.5 -5.5 -3.261 -5.5 -0.5 C
-5.5 2.261 -3.261 4.5 -0.5 4.5 C
2.261 4.5 4.5 2.261 4.5 -0.5 C
S
GR
GS
1 0 0 RC
10.0 ML
1.5 LW
N
456.887 216.979 M
456.887 204.584 L
S
GR
GS
[1 0 0 1 456.88693 216.97948] CT
1 0 0 RC
10.0 ML
1.5 LW
N
4.5 -0.5 M
4.5 -3.261 2.261 -5.5 -0.5 -5.5 C
-3.261 -5.5 -5.5 -3.261 -5.5 -0.5 C
-5.5 2.261 -3.261 4.5 -0.5 4.5 C
2.261 4.5 4.5 2.261 4.5 -0.5 C
S
GR
GS
0.6 GC
1 LJ
N
456.887 204.584 M
381.365 205.135 L
S
GR
GS
0.6 GC
1 LJ
N
381.365 205.135 M
456.887 204.584 L
S
GR
GS
0.6 GC
1 LJ
N
395.757 206.4 M
456.887 204.584 L
S
GR
GS
0.6 GC
1 LJ
N
456.887 204.584 M
395.757 206.4 L
S
GR
GS
[1 0 0 1 456.88693 204.58353] CT
0 0 1 RC
N
f626426221
f
GR
GS
[1 0 0 1 456.88693 204.58353] CT
0 0 1 RC
10.0 ML
N
3.036 -0.5 M
3.036 -2.453 1.453 -4.036 -0.5 -4.036 C
-2.453 -4.036 -4.036 -2.453 -4.036 -0.5 C
-4.036 1.453 -2.453 3.036 -0.5 3.036 C
1.453 3.036 3.036 1.453 3.036 -0.5 C
S
GR
GS
0.6 GC
10.0 ML
N
381.365 205.135 M
423.81 226.833 L
S
GR
GS
1 0 0 RC
1 setlinecap
1 LJ
1.5 LW
N
332.038 224.463 M
332.038 208.439 L
S
GR
GS
0.6 GC
1 LJ
N
309.36 212.55 M
381.365 205.135 L
S
GR
GS
0.6 GC
1 LJ
N
404.191 220.38 M
381.365 205.135 L
S
GR
GS
0.6 GC
1 LJ
N
381.365 205.135 M
404.191 220.38 L
S
GR
GS
0.6 GC
1 LJ
N
332.038 208.439 M
381.365 205.135 L
S
GR
GS
0.6 GC
1 LJ
N
329.327 217.544 M
381.365 205.135 L
S
GR
GS
0.6 GC
1 LJ
N
395.757 206.4 M
381.365 205.135 L
S
GR
GS
0.6 GC
1 LJ
N
381.365 205.135 M
438.244 216.664 L
S
GR
GS
0.6 GC
1 LJ
N
381.365 205.135 M
332.038 208.439 L
S
GR
GS
0.6 GC
1 LJ
N
423.81 226.833 M
381.365 205.135 L
S
GR
GS
0.6 GC
1 LJ
N
368.718 222.28 M
381.365 205.135 L
S
GR
GS
0.6 GC
1 LJ
N
381.365 205.135 M
329.327 217.544 L
S
GR
GS
0.6 GC
1 LJ
N
451.961 211.04 M
381.365 205.135 L
S
GR
GS
0.6 GC
1 LJ
N
381.365 205.135 M
451.961 211.04 L
S
GR
GS
0.6 GC
1 LJ
N
381.365 205.135 M
309.36 212.55 L
S
GR
GS
0.6 GC
1 LJ
N
381.365 205.135 M
395.757 206.4 L
S
GR
GS
0.6 GC
1 LJ
N
381.365 205.135 M
368.718 222.28 L
S
GR
GS
[1 0 0 1 381.36526 205.13486] CT
0 0 1 RC
N
f626426221
f
GR
GS
[1 0 0 1 381.36526 205.13486] CT
0 0 1 RC
10.0 ML
N
3.036 -0.5 M
3.036 -2.453 1.453 -4.036 -0.5 -4.036 C
-2.453 -4.036 -4.036 -2.453 -4.036 -0.5 C
-4.036 1.453 -2.453 3.036 -0.5 3.036 C
1.453 3.036 3.036 1.453 3.036 -0.5 C
S
GR
GS
0.6 GC
10.0 ML
N
438.244 216.664 M
381.365 205.135 L
S
GR
GS
1 0 0 RC
1 setlinecap
1 LJ
1.5 LW
N
189.288 215.792 M
189.288 206.076 L
S
GR
GS
[1 0 0 1 189.2885 215.79196] CT
1 0 0 RC
10.0 ML
1.5 LW
N
4.5 -0.5 M
4.5 -3.261 2.261 -5.5 -0.5 -5.5 C
-3.261 -5.5 -5.5 -3.261 -5.5 -0.5 C
-5.5 2.261 -3.261 4.5 -0.5 4.5 C
2.261 4.5 4.5 2.261 4.5 -0.5 C
S
GR
GS
0.6 GC
1 LJ
N
189.288 206.076 M
146.567 213.394 L
S
GR
GS
[1 0 0 1 189.2885 206.07562] CT
0 0 1 RC
N
f626426221
f
GR
GS
[1 0 0 1 189.2885 206.07562] CT
0 0 1 RC
10.0 ML
N
3.036 -0.5 M
3.036 -2.453 1.453 -4.036 -0.5 -4.036 C
-2.453 -4.036 -4.036 -2.453 -4.036 -0.5 C
-4.036 1.453 -2.453 3.036 -0.5 3.036 C
1.453 3.036 3.036 1.453 3.036 -0.5 C
S
GR
GS
0.6 GC
10.0 ML
N
146.567 213.394 M
189.288 206.076 L
S
GR
GS
0.6 GC
10.0 ML
N
395.757 206.4 M
404.191 220.38 L
S
GR
GS
0.6 GC
10.0 ML
N
395.757 206.4 M
368.718 222.28 L
S
GR
GS
0.6 GC
10.0 ML
N
404.191 220.38 M
395.757 206.4 L
S
GR
GS
0.6 GC
10.0 ML
N
395.757 206.4 M
309.36 212.55 L
S
GR
GS
[1 0 0 1 395.75684 206.40033] CT
0 0 1 RC
N
f626426221
f
GR
GS
[1 0 0 1 395.75684 206.40033] CT
0 0 1 RC
10.0 ML
N
3.036 -0.5 M
3.036 -2.453 1.453 -4.036 -0.5 -4.036 C
-2.453 -4.036 -4.036 -2.453 -4.036 -0.5 C
-4.036 1.453 -2.453 3.036 -0.5 3.036 C
1.453 3.036 3.036 1.453 3.036 -0.5 C
S
GR
GS
0.6 GC
10.0 ML
N
451.961 211.04 M
395.757 206.4 L
S
GR
GS
0.6 GC
10.0 ML
N
438.244 216.664 M
395.757 206.4 L
S
GR
GS
0.6 GC
10.0 ML
N
395.757 206.4 M
451.961 211.04 L
S
GR
GS
0.6 GC
10.0 ML
N
395.757 206.4 M
438.244 216.664 L
S
GR
GS
0.6 GC
10.0 ML
N
309.36 212.55 M
395.757 206.4 L
S
GR
GS
0.6 GC
10.0 ML
N
368.718 222.28 M
395.757 206.4 L
S
GR
GS
[1 0 0 1 332.03781 224.46254] CT
1 0 0 RC
10.0 ML
1.5 LW
N
4.5 -0.5 M
4.5 -3.261 2.261 -5.5 -0.5 -5.5 C
-3.261 -5.5 -5.5 -3.261 -5.5 -0.5 C
-5.5 2.261 -3.261 4.5 -0.5 4.5 C
2.261 4.5 4.5 2.261 4.5 -0.5 C
S
GR
GS
0.6 GC
10.0 ML
N
309.36 212.55 M
332.038 208.439 L
S
GR
GS
[1 0 0 1 332.03781 208.43904] CT
0 0 1 RC
N
f626426221
f
GR
GS
[1 0 0 1 332.03781 208.43904] CT
0 0 1 RC
10.0 ML
N
3.036 -0.5 M
3.036 -2.453 1.453 -4.036 -0.5 -4.036 C
-2.453 -4.036 -4.036 -2.453 -4.036 -0.5 C
-4.036 1.453 -2.453 3.036 -0.5 3.036 C
1.453 3.036 3.036 1.453 3.036 -0.5 C
S
GR
GS
0.6 GC
10.0 ML
N
332.038 208.439 M
309.36 212.55 L
S
GR
GS
1 0 0 RC
1 setlinecap
1 LJ
1.5 LW
N
451.961 223.436 M
451.961 211.04 L
S
GR
GS
[1 0 0 1 451.96106 223.43567] CT
1 0 0 RC
10.0 ML
1.5 LW
N
4.5 -0.5 M
4.5 -3.261 2.261 -5.5 -0.5 -5.5 C
-3.261 -5.5 -5.5 -3.261 -5.5 -0.5 C
-5.5 2.261 -3.261 4.5 -0.5 4.5 C
2.261 4.5 4.5 2.261 4.5 -0.5 C
S
GR
GS
[1 0 0 1 309.36041 235.90321] CT
1 0 0 RC
10.0 ML
1.5 LW
N
4.5 -0.5 M
4.5 -3.261 2.261 -5.5 -0.5 -5.5 C
-3.261 -5.5 -5.5 -3.261 -5.5 -0.5 C
-5.5 2.261 -3.261 4.5 -0.5 4.5 C
2.261 4.5 4.5 2.261 4.5 -0.5 C
S
GR
GS
1 0 0 RC
10.0 ML
1.5 LW
N
309.36 235.903 M
309.36 212.55 L
S
GR
GS
[1 0 0 1 451.96106 211.03972] CT
0 0 1 RC
N
f626426221
f
GR
GS
[1 0 0 1 451.96106 211.03972] CT
0 0 1 RC
10.0 ML
N
3.036 -0.5 M
3.036 -2.453 1.453 -4.036 -0.5 -4.036 C
-2.453 -4.036 -4.036 -2.453 -4.036 -0.5 C
-4.036 1.453 -2.453 3.036 -0.5 3.036 C
1.453 3.036 3.036 1.453 3.036 -0.5 C
S
GR
GS
0.6 GC
1 LJ
N
321.261 231.484 M
309.36 212.55 L
S
GR
GS
[1 0 0 1 309.36041 212.55045] CT
0 0 1 RC
N
f626426221
f
GR
GS
[1 0 0 1 309.36041 212.55045] CT
0 0 1 RC
10.0 ML
N
3.036 -0.5 M
3.036 -2.453 1.453 -4.036 -0.5 -4.036 C
-2.453 -4.036 -4.036 -2.453 -4.036 -0.5 C
-4.036 1.453 -2.453 3.036 -0.5 3.036 C
1.453 3.036 3.036 1.453 3.036 -0.5 C
S
GR
GS
0.6 GC
10.0 ML
N
287.534 228.165 M
309.36 212.55 L
S
GR
GS
0.6 GC
10.0 ML
N
309.36 212.55 M
287.534 228.165 L
S
GR
GS
0.6 GC
10.0 ML
N
309.36 212.55 M
321.261 231.484 L
S
GR
GS
[1 0 0 1 146.56665 216.28381] CT
1 0 0 RC
10.0 ML
1.5 LW
N
4.5 -0.5 M
4.5 -3.261 2.261 -5.5 -0.5 -5.5 C
-3.261 -5.5 -5.5 -3.261 -5.5 -0.5 C
-5.5 2.261 -3.261 4.5 -0.5 4.5 C
2.261 4.5 4.5 2.261 4.5 -0.5 C
S
GR
GS
1 0 0 RC
1 setlinecap
1 LJ
1.5 LW
N
146.567 216.284 M
146.567 213.394 L
S
GR
GS
[1 0 0 1 146.56665 213.39449] CT
0 0 1 RC
N
f626426221
f
GR
GS
[1 0 0 1 146.56665 213.39449] CT
0 0 1 RC
10.0 ML
N
3.036 -0.5 M
3.036 -2.453 1.453 -4.036 -0.5 -4.036 C
-2.453 -4.036 -4.036 -2.453 -4.036 -0.5 C
-4.036 1.453 -2.453 3.036 -0.5 3.036 C
1.453 3.036 3.036 1.453 3.036 -0.5 C
S
GR
GS
1 0 0 RC
10.0 ML
1.5 LW
N
438.244 229.06 M
438.244 216.664 L
S
GR
GS
[1 0 0 1 438.24435 229.06021] CT
1 0 0 RC
10.0 ML
1.5 LW
N
4.5 -0.5 M
4.5 -3.261 2.261 -5.5 -0.5 -5.5 C
-3.261 -5.5 -5.5 -3.261 -5.5 -0.5 C
-5.5 2.261 -3.261 4.5 -0.5 4.5 C
2.261 4.5 4.5 2.261 4.5 -0.5 C
S
GR
GS
[1 0 0 1 329.32669 233.8607] CT
1 0 0 RC
10.0 ML
1.5 LW
N
4.5 -0.5 M
4.5 -3.261 2.261 -5.5 -0.5 -5.5 C
-3.261 -5.5 -5.5 -3.261 -5.5 -0.5 C
-5.5 2.261 -3.261 4.5 -0.5 4.5 C
2.261 4.5 4.5 2.261 4.5 -0.5 C
S
GR
GS
1 0 0 RC
10.0 ML
1.5 LW
N
329.327 233.861 M
329.327 217.544 L
S
GR
GS
[1 0 0 1 438.24435 216.66426] CT
0 0 1 RC
N
f626426221
f
GR
GS
[1 0 0 1 438.24435 216.66426] CT
0 0 1 RC
10.0 ML
N
3.036 -0.5 M
3.036 -2.453 1.453 -4.036 -0.5 -4.036 C
-2.453 -4.036 -4.036 -2.453 -4.036 -0.5 C
-4.036 1.453 -2.453 3.036 -0.5 3.036 C
1.453 3.036 3.036 1.453 3.036 -0.5 C
S
GR
GS
0.6 GC
1 LJ
N
329.327 217.544 M
368.718 222.28 L
S
GR
GS
[1 0 0 1 329.32669 217.5439] CT
0 0 1 RC
N
f626426221
f
GR
GS
[1 0 0 1 329.32669 217.5439] CT
0 0 1 RC
10.0 ML
N
3.036 -0.5 M
3.036 -2.453 1.453 -4.036 -0.5 -4.036 C
-2.453 -4.036 -4.036 -2.453 -4.036 -0.5 C
-4.036 1.453 -2.453 3.036 -0.5 3.036 C
1.453 3.036 3.036 1.453 3.036 -0.5 C
S
GR
GS
0.6 GC
10.0 ML
N
329.327 217.544 M
287.534 228.165 L
S
GR
GS
0.6 GC
10.0 ML
N
368.718 222.28 M
329.327 217.544 L
S
GR
GS
0.6 GC
10.0 ML
N
287.534 228.165 M
329.327 217.544 L
S
GR
GS
[1 0 0 1 404.19116 236.87804] CT
1 0 0 RC
10.0 ML
1.5 LW
N
4.5 -0.5 M
4.5 -3.261 2.261 -5.5 -0.5 -5.5 C
-3.261 -5.5 -5.5 -3.261 -5.5 -0.5 C
-5.5 2.261 -3.261 4.5 -0.5 4.5 C
2.261 4.5 4.5 2.261 4.5 -0.5 C
S
GR
GS
1 0 0 RC
1 setlinecap
1 LJ
1.5 LW
N
404.191 236.878 M
404.191 220.38 L
S
GR
GS
0.6 GC
1 LJ
N
423.81 226.833 M
404.191 220.38 L
S
GR
GS
0.6 GC
1 LJ
N
404.191 220.38 M
423.81 226.833 L
S
GR
GS
0.6 GC
1 LJ
N
368.718 222.28 M
404.191 220.38 L
S
GR
GS
[1 0 0 1 404.19116 220.37987] CT
0 0 1 RC
N
f626426221
f
GR
GS
[1 0 0 1 404.19116 220.37987] CT
0 0 1 RC
10.0 ML
N
3.036 -0.5 M
3.036 -2.453 1.453 -4.036 -0.5 -4.036 C
-2.453 -4.036 -4.036 -2.453 -4.036 -0.5 C
-4.036 1.453 -2.453 3.036 -0.5 3.036 C
1.453 3.036 3.036 1.453 3.036 -0.5 C
S
GR
GS
0.6 GC
10.0 ML
N
404.191 220.38 M
368.718 222.28 L
S
GR
GS
1 0 0 RC
1 setlinecap
1 LJ
1.5 LW
N
368.718 240.631 M
368.718 222.28 L
S
GR
GS
[1 0 0 1 368.71765 240.63112] CT
1 0 0 RC
10.0 ML
1.5 LW
N
4.5 -0.5 M
4.5 -3.261 2.261 -5.5 -0.5 -5.5 C
-3.261 -5.5 -5.5 -3.261 -5.5 -0.5 C
-5.5 2.261 -3.261 4.5 -0.5 4.5 C
2.261 4.5 4.5 2.261 4.5 -0.5 C
S
GR
GS
[1 0 0 1 368.71765 222.28001] CT
0 0 1 RC
N
f626426221
f
GR
GS
[1 0 0 1 368.71765 222.28001] CT
0 0 1 RC
10.0 ML
N
3.036 -0.5 M
3.036 -2.453 1.453 -4.036 -0.5 -4.036 C
-2.453 -4.036 -4.036 -2.453 -4.036 -0.5 C
-4.036 1.453 -2.453 3.036 -0.5 3.036 C
1.453 3.036 3.036 1.453 3.036 -0.5 C
S
GR
GS
0.6 GC
1 LJ
N
368.718 222.28 M
321.261 231.484 L
S
GR
GS
0.6 GC
1 LJ
N
321.261 231.484 M
368.718 222.28 L
S
GR
GS
[1 0 0 1 423.81003 236.07239] CT
1 0 0 RC
10.0 ML
1.5 LW
N
4.5 -0.5 M
4.5 -3.261 2.261 -5.5 -0.5 -5.5 C
-3.261 -5.5 -5.5 -3.261 -5.5 -0.5 C
-5.5 2.261 -3.261 4.5 -0.5 4.5 C
2.261 4.5 4.5 2.261 4.5 -0.5 C
S
GR
GS
1 0 0 RC
1 setlinecap
1 LJ
1.5 LW
N
423.81 236.072 M
423.81 226.833 L
S
GR
GS
[1 0 0 1 423.81003 226.83325] CT
0 0 1 RC
N
f626426221
f
GR
GS
[1 0 0 1 423.81003 226.83325] CT
0 0 1 RC
10.0 ML
N
3.036 -0.5 M
3.036 -2.453 1.453 -4.036 -0.5 -4.036 C
-2.453 -4.036 -4.036 -2.453 -4.036 -0.5 C
-4.036 1.453 -2.453 3.036 -0.5 3.036 C
1.453 3.036 3.036 1.453 3.036 -0.5 C
S
GR
GS
1 0 0 RC
10.0 ML
1.5 LW
N
287.534 235.139 M
287.534 228.165 L
S
GR
GS
[1 0 0 1 287.53351 235.13893] CT
1 0 0 RC
10.0 ML
1.5 LW
N
4.5 -0.5 M
4.5 -3.261 2.261 -5.5 -0.5 -5.5 C
-3.261 -5.5 -5.5 -3.261 -5.5 -0.5 C
-5.5 2.261 -3.261 4.5 -0.5 4.5 C
2.261 4.5 4.5 2.261 4.5 -0.5 C
S
GR
GS
0.6 GC
1 LJ
N
287.534 228.165 M
321.261 231.484 L
S
GR
GS
0.6 GC
1 LJ
N
321.261 231.484 M
287.534 228.165 L
S
GR
GS
[1 0 0 1 287.53351 228.16461] CT
0 0 1 RC
N
f626426221
f
GR
GS
[1 0 0 1 287.53351 228.16461] CT
0 0 1 RC
10.0 ML
N
3.036 -0.5 M
3.036 -2.453 1.453 -4.036 -0.5 -4.036 C
-2.453 -4.036 -4.036 -2.453 -4.036 -0.5 C
-4.036 1.453 -2.453 3.036 -0.5 3.036 C
1.453 3.036 3.036 1.453 3.036 -0.5 C
S
GR
GS
1 0 0 RC
1 setlinecap
1 LJ
1.5 LW
N
321.261 238.722 M
321.261 231.484 L
S
GR
GS
[1 0 0 1 321.26141 238.72171] CT
1 0 0 RC
10.0 ML
1.5 LW
N
4.5 -0.5 M
4.5 -3.261 2.261 -5.5 -0.5 -5.5 C
-3.261 -5.5 -5.5 -3.261 -5.5 -0.5 C
-5.5 2.261 -3.261 4.5 -0.5 4.5 C
2.261 4.5 4.5 2.261 4.5 -0.5 C
S
GR
GS
[1 0 0 1 321.26141 231.48405] CT
0 0 1 RC
N
f626426221
f
GR
GS
[1 0 0 1 321.26141 231.48405] CT
0 0 1 RC
10.0 ML
N
3.036 -0.5 M
3.036 -2.453 1.453 -4.036 -0.5 -4.036 C
-2.453 -4.036 -4.036 -2.453 -4.036 -0.5 C
-4.036 1.453 -2.453 3.036 -0.5 3.036 C
1.453 3.036 3.036 1.453 3.036 -0.5 C
S
GR
%%Trailer
%%Pages: 1
%%EOF
