%!PS-Adobe-3.0 EPSF-3.0
%%Creator: (MATLAB, The Mathworks, Inc. Version 9.2.0.556344 \(R2017a\). Operating System: Mac OS X)
%%Title: figures/graph_ID_O_ex2.eps
%%CreationDate: 2017-10-23T16:04:26
%%Pages: (atend)
%%BoundingBox:    95    24   470   394
%%LanguageLevel: 3
%%EndComments
%%BeginProlog
%%BeginResource: procset (Apache XML Graphics Std ProcSet) 1.2 0
%%Version: 1.2 0
%%Copyright: (Copyright 2001-2003,2010 The Apache Software Foundation. License terms: http://www.apache.org/licenses/LICENSE-2.0)
/bd{bind def}bind def
/ld{load def}bd
/GR/grestore ld
/M/moveto ld
/LJ/setlinejoin ld
/C/curveto ld
/f/fill ld
/LW/setlinewidth ld
/GC/setgray ld
/t/show ld
/N/newpath ld
/CT/concat ld
/cp/closepath ld
/S/stroke ld
/L/lineto ld
/CC/setcmykcolor ld
/A/ashow ld
/GS/gsave ld
/RC/setrgbcolor ld
/RM/rmoveto ld
/ML/setmiterlimit ld
/re {4 2 roll M
1 index 0 rlineto
0 exch rlineto
neg 0 rlineto
cp } bd
/_ctm matrix def
/_tm matrix def
/BT { _ctm currentmatrix pop matrix _tm copy pop 0 0 moveto } bd
/ET { _ctm setmatrix } bd
/iTm { _ctm setmatrix _tm concat } bd
/Tm { _tm astore pop iTm 0 0 moveto } bd
/ux 0.0 def
/uy 0.0 def
/F {
  /Tp exch def
  /Tf exch def
  Tf findfont Tp scalefont setfont
  /cf Tf def  /cs Tp def
} bd
/ULS {currentpoint /uy exch def /ux exch def} bd
/ULE {
  /Tcx currentpoint pop def
  gsave
  newpath
  cf findfont cs scalefont dup
  /FontMatrix get 0 get /Ts exch def /FontInfo get dup
  /UnderlinePosition get Ts mul /To exch def
  /UnderlineThickness get Ts mul /Tt exch def
  ux uy To add moveto  Tcx uy To add lineto
  Tt setlinewidth stroke
  grestore
} bd
/OLE {
  /Tcx currentpoint pop def
  gsave
  newpath
  cf findfont cs scalefont dup
  /FontMatrix get 0 get /Ts exch def /FontInfo get dup
  /UnderlinePosition get Ts mul /To exch def
  /UnderlineThickness get Ts mul /Tt exch def
  ux uy To add cs add moveto Tcx uy To add cs add lineto
  Tt setlinewidth stroke
  grestore
} bd
/SOE {
  /Tcx currentpoint pop def
  gsave
  newpath
  cf findfont cs scalefont dup
  /FontMatrix get 0 get /Ts exch def /FontInfo get dup
  /UnderlinePosition get Ts mul /To exch def
  /UnderlineThickness get Ts mul /Tt exch def
  ux uy To add cs 10 mul 26 idiv add moveto Tcx uy To add cs 10 mul 26 idiv add lineto
  Tt setlinewidth stroke
  grestore
} bd
/QT {
/Y22 exch store
/X22 exch store
/Y21 exch store
/X21 exch store
currentpoint
/Y21 load 2 mul add 3 div exch
/X21 load 2 mul add 3 div exch
/X21 load 2 mul /X22 load add 3 div
/Y21 load 2 mul /Y22 load add 3 div
/X22 load /Y22 load curveto
} bd
/SSPD {
dup length /d exch dict def
{
/v exch def
/k exch def
currentpagedevice k known {
/cpdv currentpagedevice k get def
v cpdv ne {
/upd false def
/nullv v type /nulltype eq def
/nullcpdv cpdv type /nulltype eq def
nullv nullcpdv or
{
/upd true def
} {
/sametype v type cpdv type eq def
sametype {
v type /arraytype eq {
/vlen v length def
/cpdvlen cpdv length def
vlen cpdvlen eq {
0 1 vlen 1 sub {
/i exch def
/obj v i get def
/cpdobj cpdv i get def
obj cpdobj ne {
/upd true def
exit
} if
} for
} {
/upd true def
} ifelse
} {
v type /dicttype eq {
v {
/dv exch def
/dk exch def
/cpddv cpdv dk get def
dv cpddv ne {
/upd true def
exit
} if
} forall
} {
/upd true def
} ifelse
} ifelse
} if
} ifelse
upd true eq {
d k v put
} if
} if
} if
} forall
d length 0 gt {
d setpagedevice
} if
} bd
/RE { % /NewFontName [NewEncodingArray] /FontName RE -
  findfont dup length dict begin
  {
    1 index /FID ne
    {def} {pop pop} ifelse
  } forall
  /Encoding exch def
  /FontName 1 index def
  currentdict definefont pop
  end
} bind def
%%EndResource
%%BeginResource: procset (Apache XML Graphics EPS ProcSet) 1.0 0
%%Version: 1.0 0
%%Copyright: (Copyright 2002-2003 The Apache Software Foundation. License terms: http://www.apache.org/licenses/LICENSE-2.0)
/BeginEPSF { %def
/b4_Inc_state save def         % Save state for cleanup
/dict_count countdictstack def % Count objects on dict stack
/op_count count 1 sub def      % Count objects on operand stack
userdict begin                 % Push userdict on dict stack
/showpage { } def              % Redefine showpage, { } = null proc
0 setgray 0 setlinecap         % Prepare graphics state
1 setlinewidth 0 setlinejoin
10 setmiterlimit [ ] 0 setdash newpath
/languagelevel where           % If level not equal to 1 then
{pop languagelevel             % set strokeadjust and
1 ne                           % overprint to their defaults.
{false setstrokeadjust false setoverprint
} if
} if
} bd
/EndEPSF { %def
count op_count sub {pop} repeat            % Clean up stacks
countdictstack dict_count sub {end} repeat
b4_Inc_state restore
} bd
%%EndResource
%FOPBeginFontDict
%%IncludeResource: font Courier-Bold
%%IncludeResource: font Helvetica
%%IncludeResource: font Courier-BoldOblique
%%IncludeResource: font Courier-Oblique
%%IncludeResource: font Times-Roman
%%IncludeResource: font Helvetica-BoldOblique
%%IncludeResource: font Helvetica-Bold
%%IncludeResource: font Helvetica-Oblique
%%IncludeResource: font Times-BoldItalic
%%IncludeResource: font Courier
%%IncludeResource: font Times-Italic
%%IncludeResource: font Times-Bold
%%IncludeResource: font Symbol
%%IncludeResource: font ZapfDingbats
%FOPEndFontDict
%%BeginResource: encoding WinAnsiEncoding
/WinAnsiEncoding [
/.notdef /.notdef /.notdef /.notdef /.notdef
/.notdef /.notdef /.notdef /.notdef /.notdef
/.notdef /.notdef /.notdef /.notdef /.notdef
/.notdef /.notdef /.notdef /.notdef /.notdef
/.notdef /.notdef /.notdef /.notdef /.notdef
/.notdef /.notdef /.notdef /.notdef /.notdef
/.notdef /.notdef /space /exclam /quotedbl
/numbersign /dollar /percent /ampersand /quotesingle
/parenleft /parenright /asterisk /plus /comma
/hyphen /period /slash /zero /one
/two /three /four /five /six
/seven /eight /nine /colon /semicolon
/less /equal /greater /question /at
/A /B /C /D /E
/F /G /H /I /J
/K /L /M /N /O
/P /Q /R /S /T
/U /V /W /X /Y
/Z /bracketleft /backslash /bracketright /asciicircum
/underscore /quoteleft /a /b /c
/d /e /f /g /h
/i /j /k /l /m
/n /o /p /q /r
/s /t /u /v /w
/x /y /z /braceleft /bar
/braceright /asciitilde /bullet /Euro /bullet
/quotesinglbase /florin /quotedblbase /ellipsis /dagger
/daggerdbl /circumflex /perthousand /Scaron /guilsinglleft
/OE /bullet /Zcaron /bullet /bullet
/quoteleft /quoteright /quotedblleft /quotedblright /bullet
/endash /emdash /asciitilde /trademark /scaron
/guilsinglright /oe /bullet /zcaron /Ydieresis
/space /exclamdown /cent /sterling /currency
/yen /brokenbar /section /dieresis /copyright
/ordfeminine /guillemotleft /logicalnot /sfthyphen /registered
/macron /degree /plusminus /twosuperior /threesuperior
/acute /mu /paragraph /middot /cedilla
/onesuperior /ordmasculine /guillemotright /onequarter /onehalf
/threequarters /questiondown /Agrave /Aacute /Acircumflex
/Atilde /Adieresis /Aring /AE /Ccedilla
/Egrave /Eacute /Ecircumflex /Edieresis /Igrave
/Iacute /Icircumflex /Idieresis /Eth /Ntilde
/Ograve /Oacute /Ocircumflex /Otilde /Odieresis
/multiply /Oslash /Ugrave /Uacute /Ucircumflex
/Udieresis /Yacute /Thorn /germandbls /agrave
/aacute /acircumflex /atilde /adieresis /aring
/ae /ccedilla /egrave /eacute /ecircumflex
/edieresis /igrave /iacute /icircumflex /idieresis
/eth /ntilde /ograve /oacute /ocircumflex
/otilde /odieresis /divide /oslash /ugrave
/uacute /ucircumflex /udieresis /yacute /thorn
/ydieresis
] def
%%EndResource
%FOPBeginFontReencode
/Courier-Bold findfont
dup length dict begin
  {1 index /FID ne {def} {pop pop} ifelse} forall
  /Encoding WinAnsiEncoding def
  currentdict
end
/Courier-Bold exch definefont pop
/Helvetica findfont
dup length dict begin
  {1 index /FID ne {def} {pop pop} ifelse} forall
  /Encoding WinAnsiEncoding def
  currentdict
end
/Helvetica exch definefont pop
/Courier-BoldOblique findfont
dup length dict begin
  {1 index /FID ne {def} {pop pop} ifelse} forall
  /Encoding WinAnsiEncoding def
  currentdict
end
/Courier-BoldOblique exch definefont pop
/Courier-Oblique findfont
dup length dict begin
  {1 index /FID ne {def} {pop pop} ifelse} forall
  /Encoding WinAnsiEncoding def
  currentdict
end
/Courier-Oblique exch definefont pop
/Times-Roman findfont
dup length dict begin
  {1 index /FID ne {def} {pop pop} ifelse} forall
  /Encoding WinAnsiEncoding def
  currentdict
end
/Times-Roman exch definefont pop
/Helvetica-BoldOblique findfont
dup length dict begin
  {1 index /FID ne {def} {pop pop} ifelse} forall
  /Encoding WinAnsiEncoding def
  currentdict
end
/Helvetica-BoldOblique exch definefont pop
/Helvetica-Bold findfont
dup length dict begin
  {1 index /FID ne {def} {pop pop} ifelse} forall
  /Encoding WinAnsiEncoding def
  currentdict
end
/Helvetica-Bold exch definefont pop
/Helvetica-Oblique findfont
dup length dict begin
  {1 index /FID ne {def} {pop pop} ifelse} forall
  /Encoding WinAnsiEncoding def
  currentdict
end
/Helvetica-Oblique exch definefont pop
/Times-BoldItalic findfont
dup length dict begin
  {1 index /FID ne {def} {pop pop} ifelse} forall
  /Encoding WinAnsiEncoding def
  currentdict
end
/Times-BoldItalic exch definefont pop
/Courier findfont
dup length dict begin
  {1 index /FID ne {def} {pop pop} ifelse} forall
  /Encoding WinAnsiEncoding def
  currentdict
end
/Courier exch definefont pop
/Times-Italic findfont
dup length dict begin
  {1 index /FID ne {def} {pop pop} ifelse} forall
  /Encoding WinAnsiEncoding def
  currentdict
end
/Times-Italic exch definefont pop
/Times-Bold findfont
dup length dict begin
  {1 index /FID ne {def} {pop pop} ifelse} forall
  /Encoding WinAnsiEncoding def
  currentdict
end
/Times-Bold exch definefont pop
%FOPEndFontReencode
%%EndProlog
%%Page: 1 1
%%PageBoundingBox: 0 0 560 420
%%BeginPageSetup
[1 0 0 -1 0 420] CT
%%EndPageSetup
GS
1 GC
N
0 0 560 420 re
f
GR
GS
1 GC
N
0 0 560 420 re
f
GR
GS
1 GC
N
461.25 31.5 M
118.75 31.5 L
118.75 374 L
461.25 374 L
cp
f
GR
GS
0.149 GC
2 setlinecap
1 LJ
0.5 LW
N
118.75 374 M
461.25 374 L
S
GR
GS
0.149 GC
2 setlinecap
1 LJ
0.5 LW
N
118.75 31.5 M
461.25 31.5 L
S
GR
GS
0.149 GC
2 setlinecap
1 LJ
0.5 LW
N
118.75 374 M
118.75 370.575 L
S
GR
GS
0.149 GC
2 setlinecap
1 LJ
0.5 LW
N
167.679 374 M
167.679 370.575 L
S
GR
GS
0.149 GC
2 setlinecap
1 LJ
0.5 LW
N
216.607 374 M
216.607 370.575 L
S
GR
GS
0.149 GC
2 setlinecap
1 LJ
0.5 LW
N
265.536 374 M
265.536 370.575 L
S
GR
GS
0.149 GC
2 setlinecap
1 LJ
0.5 LW
N
314.464 374 M
314.464 370.575 L
S
GR
GS
0.149 GC
2 setlinecap
1 LJ
0.5 LW
N
363.393 374 M
363.393 370.575 L
S
GR
GS
0.149 GC
2 setlinecap
1 LJ
0.5 LW
N
412.321 374 M
412.321 370.575 L
S
GR
GS
0.149 GC
2 setlinecap
1 LJ
0.5 LW
N
461.25 374 M
461.25 370.575 L
S
GR
GS
0.149 GC
2 setlinecap
1 LJ
0.5 LW
N
118.75 31.5 M
118.75 34.925 L
S
GR
GS
0.149 GC
2 setlinecap
1 LJ
0.5 LW
N
167.679 31.5 M
167.679 34.925 L
S
GR
GS
0.149 GC
2 setlinecap
1 LJ
0.5 LW
N
216.607 31.5 M
216.607 34.925 L
S
GR
GS
0.149 GC
2 setlinecap
1 LJ
0.5 LW
N
265.536 31.5 M
265.536 34.925 L
S
GR
GS
0.149 GC
2 setlinecap
1 LJ
0.5 LW
N
314.464 31.5 M
314.464 34.925 L
S
GR
GS
0.149 GC
2 setlinecap
1 LJ
0.5 LW
N
363.393 31.5 M
363.393 34.925 L
S
GR
GS
0.149 GC
2 setlinecap
1 LJ
0.5 LW
N
412.321 31.5 M
412.321 34.925 L
S
GR
GS
0.149 GC
2 setlinecap
1 LJ
0.5 LW
N
461.25 31.5 M
461.25 34.925 L
S
GR
GS
[1 0 0 1 118.75 379.20001] CT
0.149 GC
/Helvetica 16 F
GS
[1 0 0 1 0 0] CT
-4.5 16 moveto 
1 -1 scale
(0) t 
GR
GR
GS
[1 0 0 1 167.67857 379.20001] CT
0.149 GC
/Helvetica 16 F
GS
[1 0 0 1 0 0] CT
-4.5 16 moveto 
1 -1 scale
(5) t 
GR
GR
GS
[1 0 0 1 216.60715 379.20001] CT
0.149 GC
/Helvetica 16 F
GS
[1 0 0 1 0 0] CT
-9 16 moveto 
1 -1 scale
(10) t 
GR
GR
GS
[1 0 0 1 265.53571 379.20001] CT
0.149 GC
/Helvetica 16 F
GS
[1 0 0 1 0 0] CT
-9 16 moveto 
1 -1 scale
(15) t 
GR
GR
GS
[1 0 0 1 314.46429 379.20001] CT
0.149 GC
/Helvetica 16 F
GS
[1 0 0 1 0 0] CT
-9 16 moveto 
1 -1 scale
(20) t 
GR
GR
GS
[1 0 0 1 363.39285 379.20001] CT
0.149 GC
/Helvetica 16 F
GS
[1 0 0 1 0 0] CT
-9 16 moveto 
1 -1 scale
(25) t 
GR
GR
GS
[1 0 0 1 412.32144 379.20001] CT
0.149 GC
/Helvetica 16 F
GS
[1 0 0 1 0 0] CT
-9 16 moveto 
1 -1 scale
(30) t 
GR
GR
GS
[1 0 0 1 461.25 379.20001] CT
0.149 GC
/Helvetica 16 F
GS
[1 0 0 1 0 0] CT
-9 16 moveto 
1 -1 scale
(35) t 
GR
GR
GS
0.149 GC
2 setlinecap
1 LJ
0.5 LW
N
118.75 31.5 M
118.75 374 L
S
GR
GS
0.149 GC
2 setlinecap
1 LJ
0.5 LW
N
461.25 31.5 M
461.25 374 L
S
GR
GS
0.149 GC
2 setlinecap
1 LJ
0.5 LW
N
118.75 31.5 M
122.175 31.5 L
S
GR
GS
0.149 GC
2 setlinecap
1 LJ
0.5 LW
N
118.75 80.429 M
122.175 80.429 L
S
GR
GS
0.149 GC
2 setlinecap
1 LJ
0.5 LW
N
118.75 129.357 M
122.175 129.357 L
S
GR
GS
0.149 GC
2 setlinecap
1 LJ
0.5 LW
N
118.75 178.286 M
122.175 178.286 L
S
GR
GS
0.149 GC
2 setlinecap
1 LJ
0.5 LW
N
118.75 227.214 M
122.175 227.214 L
S
GR
GS
0.149 GC
2 setlinecap
1 LJ
0.5 LW
N
118.75 276.143 M
122.175 276.143 L
S
GR
GS
0.149 GC
2 setlinecap
1 LJ
0.5 LW
N
118.75 325.071 M
122.175 325.071 L
S
GR
GS
0.149 GC
2 setlinecap
1 LJ
0.5 LW
N
118.75 374 M
122.175 374 L
S
GR
GS
0.149 GC
2 setlinecap
1 LJ
0.5 LW
N
461.25 31.5 M
457.825 31.5 L
S
GR
GS
0.149 GC
2 setlinecap
1 LJ
0.5 LW
N
461.25 80.429 M
457.825 80.429 L
S
GR
GS
0.149 GC
2 setlinecap
1 LJ
0.5 LW
N
461.25 129.357 M
457.825 129.357 L
S
GR
GS
0.149 GC
2 setlinecap
1 LJ
0.5 LW
N
461.25 178.286 M
457.825 178.286 L
S
GR
GS
0.149 GC
2 setlinecap
1 LJ
0.5 LW
N
461.25 227.214 M
457.825 227.214 L
S
GR
GS
0.149 GC
2 setlinecap
1 LJ
0.5 LW
N
461.25 276.143 M
457.825 276.143 L
S
GR
GS
0.149 GC
2 setlinecap
1 LJ
0.5 LW
N
461.25 325.071 M
457.825 325.071 L
S
GR
GS
0.149 GC
2 setlinecap
1 LJ
0.5 LW
N
461.25 374 M
457.825 374 L
S
GR
GS
[1 0 0 1 113.55 31.5] CT
0.149 GC
/Helvetica 16 F
GS
[1 0 0 1 0 0] CT
-9 6 moveto 
1 -1 scale
(0) t 
GR
GR
GS
[1 0 0 1 113.55 80.42857] CT
0.149 GC
/Helvetica 16 F
GS
[1 0 0 1 0 0] CT
-9 6 moveto 
1 -1 scale
(5) t 
GR
GR
GS
[1 0 0 1 113.55 129.35715] CT
0.149 GC
/Helvetica 16 F
GS
[1 0 0 1 0 0] CT
-18 6 moveto 
1 -1 scale
(10) t 
GR
GR
GS
[1 0 0 1 113.55 178.28572] CT
0.149 GC
/Helvetica 16 F
GS
[1 0 0 1 0 0] CT
-18 6 moveto 
1 -1 scale
(15) t 
GR
GR
GS
[1 0 0 1 113.55 227.21428] CT
0.149 GC
/Helvetica 16 F
GS
[1 0 0 1 0 0] CT
-18 6 moveto 
1 -1 scale
(20) t 
GR
GR
GS
[1 0 0 1 113.55 276.14285] CT
0.149 GC
/Helvetica 16 F
GS
[1 0 0 1 0 0] CT
-18 6 moveto 
1 -1 scale
(25) t 
GR
GR
GS
[1 0 0 1 113.55 325.07144] CT
0.149 GC
/Helvetica 16 F
GS
[1 0 0 1 0 0] CT
-18 6 moveto 
1 -1 scale
(30) t 
GR
GR
GS
[1 0 0 1 113.55 374] CT
0.149 GC
/Helvetica 16 F
GS
[1 0 0 1 0 0] CT
-18 6 moveto 
1 -1 scale
(35) t 
GR
GR
GS
[1 0 0 1 128.53572 41.28571] CT
N
2.333 0 M
2.333 1.289 1.289 2.333 0 2.333 C
-1.289 2.333 -2.333 1.289 -2.333 0 C
-2.333 -1.289 -1.289 -2.333 0 -2.333 C
1.289 -2.333 2.333 -1.289 2.333 0 C
cp
f
GR
GS
[1 0 0 1 138.32143 70.64286] CT
N
/f1208303627{2.333 0 M
2.333 1.289 1.289 2.333 0 2.333 C
-1.289 2.333 -2.333 1.289 -2.333 0 C
-2.333 -1.289 -1.289 -2.333 0 -2.333 C
1.289 -2.333 2.333 -1.289 2.333 0 C
cp}def
f1208303627
f
GR
GS
[1 0 0 1 148.10715 129.35715] CT
N
f1208303627
f
GR
GS
[1 0 0 1 157.89285 217.42857] CT
N
f1208303627
f
GR
GS
[1 0 0 1 167.67857 178.28572] CT
N
f1208303627
f
GR
GS
[1 0 0 1 177.46428 266.35715] CT
N
f1208303627
f
GR
GS
[1 0 0 1 177.46428 276.14285] CT
N
f1208303627
f
GR
GS
[1 0 0 1 177.46428 285.92856] CT
N
f1208303627
f
GR
GS
[1 0 0 1 177.46428 295.71429] CT
N
f1208303627
f
GR
GS
[1 0 0 1 177.46428 305.5] CT
N
f1208303627
f
GR
GS
[1 0 0 1 177.46428 315.28571] CT
N
f1208303627
f
GR
GS
[1 0 0 1 177.46428 325.07144] CT
N
f1208303627
f
GR
GS
[1 0 0 1 177.46428 334.85715] CT
N
f1208303627
f
GR
GS
[1 0 0 1 177.46428 344.64285] CT
N
f1208303627
f
GR
GS
[1 0 0 1 177.46428 354.42856] CT
N
f1208303627
f
GR
GS
[1 0 0 1 177.46428 364.21429] CT
N
f1208303627
f
GR
GS
[1 0 0 1 187.25 246.78572] CT
N
f1208303627
f
GR
GS
[1 0 0 1 197.03572 139.14285] CT
N
f1208303627
f
GR
GS
[1 0 0 1 206.82143 119.57143] CT
N
f1208303627
f
GR
GS
[1 0 0 1 216.60715 109.78571] CT
N
f1208303627
f
GR
GS
[1 0 0 1 226.39285 90.21429] CT
N
f1208303627
f
GR
GS
[1 0 0 1 236.17857 158.71428] CT
N
f1208303627
f
GR
GS
[1 0 0 1 245.96428 266.35715] CT
N
f1208303627
f
GR
GS
[1 0 0 1 245.96428 276.14285] CT
N
f1208303627
f
GR
GS
[1 0 0 1 245.96428 285.92856] CT
N
f1208303627
f
GR
GS
[1 0 0 1 245.96428 295.71429] CT
N
f1208303627
f
GR
GS
[1 0 0 1 245.96428 305.5] CT
N
f1208303627
f
GR
GS
[1 0 0 1 245.96428 315.28571] CT
N
f1208303627
f
GR
GS
[1 0 0 1 245.96428 325.07144] CT
N
f1208303627
f
GR
GS
[1 0 0 1 245.96428 334.85715] CT
N
f1208303627
f
GR
GS
[1 0 0 1 245.96428 344.64285] CT
N
f1208303627
f
GR
GS
[1 0 0 1 245.96428 354.42856] CT
N
f1208303627
f
GR
GS
[1 0 0 1 245.96428 364.21429] CT
N
f1208303627
f
GR
GS
[1 0 0 1 255.75 266.35715] CT
N
f1208303627
f
GR
GS
[1 0 0 1 255.75 276.14285] CT
N
f1208303627
f
GR
GS
[1 0 0 1 255.75 285.92856] CT
N
f1208303627
f
GR
GS
[1 0 0 1 255.75 295.71429] CT
N
f1208303627
f
GR
GS
[1 0 0 1 255.75 305.5] CT
N
f1208303627
f
GR
GS
[1 0 0 1 255.75 315.28571] CT
N
f1208303627
f
GR
GS
[1 0 0 1 255.75 325.07144] CT
N
f1208303627
f
GR
GS
[1 0 0 1 255.75 334.85715] CT
N
f1208303627
f
GR
GS
[1 0 0 1 255.75 344.64285] CT
N
f1208303627
f
GR
GS
[1 0 0 1 255.75 354.42856] CT
N
f1208303627
f
GR
GS
[1 0 0 1 255.75 364.21429] CT
N
f1208303627
f
GR
GS
[1 0 0 1 265.53571 266.35715] CT
N
f1208303627
f
GR
GS
[1 0 0 1 265.53571 276.14285] CT
N
f1208303627
f
GR
GS
[1 0 0 1 265.53571 285.92856] CT
N
f1208303627
f
GR
GS
[1 0 0 1 265.53571 295.71429] CT
N
f1208303627
f
GR
GS
[1 0 0 1 265.53571 305.5] CT
N
f1208303627
f
GR
GS
[1 0 0 1 265.53571 315.28571] CT
N
f1208303627
f
GR
GS
[1 0 0 1 265.53571 325.07144] CT
N
f1208303627
f
GR
GS
[1 0 0 1 265.53571 334.85715] CT
N
f1208303627
f
GR
GS
[1 0 0 1 265.53571 344.64285] CT
N
f1208303627
f
GR
GS
[1 0 0 1 265.53571 354.42856] CT
N
f1208303627
f
GR
GS
[1 0 0 1 265.53571 364.21429] CT
N
f1208303627
f
GR
GS
[1 0 0 1 275.32144 266.35715] CT
N
f1208303627
f
GR
GS
[1 0 0 1 275.32144 276.14285] CT
N
f1208303627
f
GR
GS
[1 0 0 1 275.32144 285.92856] CT
N
f1208303627
f
GR
GS
[1 0 0 1 275.32144 295.71429] CT
N
f1208303627
f
GR
GS
[1 0 0 1 275.32144 305.5] CT
N
f1208303627
f
GR
GS
[1 0 0 1 275.32144 315.28571] CT
N
f1208303627
f
GR
GS
[1 0 0 1 275.32144 325.07144] CT
N
f1208303627
f
GR
GS
[1 0 0 1 275.32144 334.85715] CT
N
f1208303627
f
GR
GS
[1 0 0 1 275.32144 344.64285] CT
N
f1208303627
f
GR
GS
[1 0 0 1 275.32144 354.42856] CT
N
f1208303627
f
GR
GS
[1 0 0 1 275.32144 364.21429] CT
N
f1208303627
f
GR
GS
[1 0 0 1 285.10715 266.35715] CT
N
f1208303627
f
GR
GS
[1 0 0 1 285.10715 276.14285] CT
N
f1208303627
f
GR
GS
[1 0 0 1 285.10715 285.92856] CT
N
f1208303627
f
GR
GS
[1 0 0 1 285.10715 295.71429] CT
N
f1208303627
f
GR
GS
[1 0 0 1 285.10715 305.5] CT
N
f1208303627
f
GR
GS
[1 0 0 1 285.10715 315.28571] CT
N
f1208303627
f
GR
GS
[1 0 0 1 285.10715 325.07144] CT
N
f1208303627
f
GR
GS
[1 0 0 1 285.10715 334.85715] CT
N
f1208303627
f
GR
GS
[1 0 0 1 285.10715 344.64285] CT
N
f1208303627
f
GR
GS
[1 0 0 1 285.10715 354.42856] CT
N
f1208303627
f
GR
GS
[1 0 0 1 285.10715 364.21429] CT
N
f1208303627
f
GR
GS
[1 0 0 1 294.89285 266.35715] CT
N
f1208303627
f
GR
GS
[1 0 0 1 294.89285 276.14285] CT
N
f1208303627
f
GR
GS
[1 0 0 1 294.89285 285.92856] CT
N
f1208303627
f
GR
GS
[1 0 0 1 294.89285 295.71429] CT
N
f1208303627
f
GR
GS
[1 0 0 1 294.89285 305.5] CT
N
f1208303627
f
GR
GS
[1 0 0 1 294.89285 315.28571] CT
N
f1208303627
f
GR
GS
[1 0 0 1 294.89285 325.07144] CT
N
f1208303627
f
GR
GS
[1 0 0 1 294.89285 334.85715] CT
N
f1208303627
f
GR
GS
[1 0 0 1 294.89285 344.64285] CT
N
f1208303627
f
GR
GS
[1 0 0 1 294.89285 354.42856] CT
N
f1208303627
f
GR
GS
[1 0 0 1 294.89285 364.21429] CT
N
f1208303627
f
GR
GS
[1 0 0 1 304.67856 266.35715] CT
N
f1208303627
f
GR
GS
[1 0 0 1 304.67856 276.14285] CT
N
f1208303627
f
GR
GS
[1 0 0 1 304.67856 285.92856] CT
N
f1208303627
f
GR
GS
[1 0 0 1 304.67856 295.71429] CT
N
f1208303627
f
GR
GS
[1 0 0 1 304.67856 305.5] CT
N
f1208303627
f
GR
GS
[1 0 0 1 304.67856 315.28571] CT
N
f1208303627
f
GR
GS
[1 0 0 1 304.67856 325.07144] CT
N
f1208303627
f
GR
GS
[1 0 0 1 304.67856 334.85715] CT
N
f1208303627
f
GR
GS
[1 0 0 1 304.67856 344.64285] CT
N
f1208303627
f
GR
GS
[1 0 0 1 304.67856 354.42856] CT
N
f1208303627
f
GR
GS
[1 0 0 1 304.67856 364.21429] CT
N
f1208303627
f
GR
GS
[1 0 0 1 314.46429 266.35715] CT
N
f1208303627
f
GR
GS
[1 0 0 1 314.46429 276.14285] CT
N
f1208303627
f
GR
GS
[1 0 0 1 314.46429 285.92856] CT
N
f1208303627
f
GR
GS
[1 0 0 1 314.46429 295.71429] CT
N
f1208303627
f
GR
GS
[1 0 0 1 314.46429 305.5] CT
N
f1208303627
f
GR
GS
[1 0 0 1 314.46429 315.28571] CT
N
f1208303627
f
GR
GS
[1 0 0 1 314.46429 325.07144] CT
N
f1208303627
f
GR
GS
[1 0 0 1 314.46429 334.85715] CT
N
f1208303627
f
GR
GS
[1 0 0 1 314.46429 344.64285] CT
N
f1208303627
f
GR
GS
[1 0 0 1 314.46429 354.42856] CT
N
f1208303627
f
GR
GS
[1 0 0 1 314.46429 364.21429] CT
N
f1208303627
f
GR
GS
[1 0 0 1 324.25 266.35715] CT
N
f1208303627
f
GR
GS
[1 0 0 1 324.25 276.14285] CT
N
f1208303627
f
GR
GS
[1 0 0 1 324.25 285.92856] CT
N
f1208303627
f
GR
GS
[1 0 0 1 324.25 295.71429] CT
N
f1208303627
f
GR
GS
[1 0 0 1 324.25 305.5] CT
N
f1208303627
f
GR
GS
[1 0 0 1 324.25 315.28571] CT
N
f1208303627
f
GR
GS
[1 0 0 1 324.25 325.07144] CT
N
f1208303627
f
GR
GS
[1 0 0 1 324.25 334.85715] CT
N
f1208303627
f
GR
GS
[1 0 0 1 324.25 344.64285] CT
N
f1208303627
f
GR
GS
[1 0 0 1 324.25 354.42856] CT
N
f1208303627
f
GR
GS
[1 0 0 1 324.25 364.21429] CT
N
f1208303627
f
GR
GS
[1 0 0 1 334.03571 266.35715] CT
N
f1208303627
f
GR
GS
[1 0 0 1 334.03571 276.14285] CT
N
f1208303627
f
GR
GS
[1 0 0 1 334.03571 285.92856] CT
N
f1208303627
f
GR
GS
[1 0 0 1 334.03571 295.71429] CT
N
f1208303627
f
GR
GS
[1 0 0 1 334.03571 305.5] CT
N
f1208303627
f
GR
GS
[1 0 0 1 334.03571 315.28571] CT
N
f1208303627
f
GR
GS
[1 0 0 1 334.03571 325.07144] CT
N
f1208303627
f
GR
GS
[1 0 0 1 334.03571 334.85715] CT
N
f1208303627
f
GR
GS
[1 0 0 1 334.03571 344.64285] CT
N
f1208303627
f
GR
GS
[1 0 0 1 334.03571 354.42856] CT
N
f1208303627
f
GR
GS
[1 0 0 1 334.03571 364.21429] CT
N
f1208303627
f
GR
GS
[1 0 0 1 343.82144 207.64285] CT
N
f1208303627
f
GR
GS
[1 0 0 1 353.60715 100] CT
N
f1208303627
f
GR
GS
[1 0 0 1 363.39285 168.5] CT
N
f1208303627
f
GR
GS
[1 0 0 1 373.17856 256.57144] CT
N
f1208303627
f
GR
GS
[1 0 0 1 382.96429 148.92857] CT
N
f1208303627
f
GR
GS
[1 0 0 1 392.75 80.42857] CT
N
f1208303627
f
GR
GS
[1 0 0 1 402.53571 188.07143] CT
N
f1208303627
f
GR
GS
[1 0 0 1 412.32144 227.21428] CT
N
f1208303627
f
GR
GS
[1 0 0 1 422.10715 197.85715] CT
N
f1208303627
f
GR
GS
[1 0 0 1 431.89285 237] CT
N
f1208303627
f
GR
GS
[1 0 0 1 441.67856 60.85714] CT
N
f1208303627
f
GR
GS
[1 0 0 1 451.46429 51.07143] CT
N
f1208303627
f
GR
GS
1 0 0 RC
1 LJ
2 LW
N
118.75 261.464 M
461.25 261.464 L
S
GR
%%Trailer
%%Pages: 1
%%EOF
